<?xml version="1.0" encoding="utf-8"?>
<!-- Generator: Adobe Illustrator 23.0.2, SVG Export Plug-In . SVG Version: 6.00 Build 0)  -->
<svg version="1.1" id="Layer_1" xmlns="http://www.w3.org/2000/svg" xmlns:xlink="http://www.w3.org/1999/xlink" x="0px" y="0px"
	 viewBox="0 0 192 326" style="enable-background:new 0 0 192 326;" xml:space="preserve">
<style type="text/css">
	.st0{opacity:0.15;}
	.st1{filter:url(#Adobe_OpacityMaskFilter);}
	.st2{fill-rule:evenodd;clip-rule:evenodd;fill:#FFFFFF;}
	.st3{mask:url(#mask-2_1_);fill-rule:evenodd;clip-rule:evenodd;fill:#E5E5E5;}
	.st4{filter:url(#Adobe_OpacityMaskFilter_1_);}
	.st5{mask:url(#mask-4_1_);fill-rule:evenodd;clip-rule:evenodd;fill:#E5E5E5;}
	.st6{filter:url(#Adobe_OpacityMaskFilter_2_);}
	.st7{mask:url(#mask-6_1_);fill-rule:evenodd;clip-rule:evenodd;fill:#E5E5E5;}
	.st8{fill-rule:evenodd;clip-rule:evenodd;fill:#E5E5E5;}
</style>
<g class="st0">
	<g id="Открытое-меню" transform="translate(-940.000000, -474.000000)">
		<g id="Group-2" transform="translate(0.000000, -18.000000)">
			<g id="Page-1" transform="translate(940.000000, 492.000000)">
				<g id="Group-42">
					<g id="Clip-41">
					</g>
					<defs>
						<filter id="Adobe_OpacityMaskFilter" filterUnits="userSpaceOnUse" x="0" y="0" width="192" height="326">
							<feColorMatrix  type="matrix" values="1 0 0 0 0  0 1 0 0 0  0 0 1 0 0  0 0 0 1 0"/>
						</filter>
					</defs>
					<mask maskUnits="userSpaceOnUse" x="0" y="0" width="192" height="326" id="mask-2_1_">
						<g class="st1">
							<polygon id="path-1_1_" class="st2" points="192,163 192,326 0,326 0,163 0,0 192,0 							"/>
						</g>
					</mask>
					<path id="Fill-40" class="st3" d="M39.8,188.3v-68.9l26-14.5L86,150.3v63.9L39.8,188.3z M35.3,116.9L35.3,116.9L35.3,116.9
						L35.3,116.9z M121.5,73.8l18.5,41.3l-48,26.8l-18.5-41.3L121.5,73.8z M105.8,55.9c1.2-0.4,2.4-0.8,3.5-1.2l5.7,12.8l-3.2,1.8
						L105.8,55.9z M141.2,188.3l-46.3,25.8l0-63.9l46.3-25.8L141.2,188.3z M119.9,8.8c2,0,3.7,1.6,3.7,3.6c0,2-1.6,3.5-3.7,3.6
						c-2,0-3.7-1.6-3.7-3.6C116.2,10.4,117.9,8.8,119.9,8.8L119.9,8.8z M167.7,183.4l19.9,11.1l4.4-7.4l-15.4-8.6l15.4-8.6l-4.4-7.4
						l-37.5,20.9v-64l19.8-11.1l-4.4-7.4l-17.8,9.9l-18.5-41.3l40.7-22.7l-4.4-7.4L150.1,48V30.8h-8.9v22.1l-22.6,12.6L113,53
						c12.9-6.7,21.7-19.8,21.7-34.9c0-1.9,0-5.8,0-5.8L112.5,0v24.6L68.4,49.2c7,5.3,15.7,8.4,25.3,8.4c2.7,0,5.4-0.3,8-0.8
						l6.4,14.4L70,92.6L54.1,57.2l-7.7,4.3l6.3,14.2H35.4v8.6l21.2,0L62.2,97l-26.9,15L4.4,94.7L0,102.2l30.9,17.2v64L4.4,168.6
						L0,176l26.4,14.7L5.6,202.4l4.4,7.4l25.3-14.1L86,224v102l8.9,0V224L167.7,183.4z"/>
				</g>
				<g id="Group-48" transform="translate(4.000000, 124.000000)">
					<g id="Clip-47">
					</g>
					<defs>
						<filter id="Adobe_OpacityMaskFilter_1_" filterUnits="userSpaceOnUse" x="0.2" y="0.4" width="22.6" height="14.9">
							<feColorMatrix  type="matrix" values="1 0 0 0 0  0 1 0 0 0  0 0 1 0 0  0 0 0 1 0"/>
						</filter>
					</defs>
					<mask maskUnits="userSpaceOnUse" x="0.2" y="0.4" width="22.6" height="14.9" id="mask-4_1_">
						<g class="st4">
							<polygon id="path-3_1_" class="st2" points="0.2,0.4 22.8,0.4 22.8,15.3 0.2,15.3 							"/>
						</g>
					</mask>
					<path id="Fill-46" class="st5" d="M14.4,12.9c4.3-2.5,7.1-6.7,8.4-11.8c-4.9-1.3-9.9-0.9-14.1,1.7C4.4,5.3,1.6,9.6,0.2,14.6
						C5.1,15.9,10.1,15.4,14.4,12.9"/>
				</g>
				<g id="Group-51" transform="translate(158.000000, 147.000000)">
					<g id="Clip-50">
					</g>
					<defs>
						<filter id="Adobe_OpacityMaskFilter_2_" filterUnits="userSpaceOnUse" x="0.6" y="0.6" width="21.8" height="14.9">
							<feColorMatrix  type="matrix" values="1 0 0 0 0  0 1 0 0 0  0 0 1 0 0  0 0 0 1 0"/>
						</filter>
					</defs>
					<mask maskUnits="userSpaceOnUse" x="0.6" y="0.6" width="21.8" height="14.9" id="mask-6_1_">
						<g class="st6">
							<polygon id="path-5_1_" class="st2" points="0.6,0.6 22.4,0.6 22.4,15.4 0.6,15.4 							"/>
						</g>
					</mask>
					<path id="Fill-49" class="st7" d="M0.6,14.7c4.7,1.3,9.5,0.9,13.6-1.7c4.1-2.5,6.9-6.7,8.2-11.8C17.7,0,12.9,0.4,8.8,3
						C4.7,5.5,1.9,9.7,0.6,14.7"/>
				</g>
				<path id="Fill-55" class="st8" d="M145,70.7c1.2,5.1,3.7,9.3,7.5,11.9c3.8,2.6,8.2,3,12.5,1.7c-1.2-5.1-3.7-9.3-7.5-11.9
					C153.7,69.8,149.3,69.4,145,70.7"/>
			</g>
		</g>
	</g>
</g>
</svg>
