<?xml version="1.0" encoding="UTF-8"?>
<svg width="13px" height="8px" viewBox="0 0 13 8" version="1.1" xmlns="http://www.w3.org/2000/svg" xmlns:xlink="http://www.w3.org/1999/xlink">
    <g id="О-проекте" stroke="none" stroke-width="1" fill="none" fill-rule="evenodd" transform="translate(-714.000000, -914.000000)">
        <g id="2-блок" transform="translate(227.000000, 652.000000)" fill="#8f3149">
            <g id="Фишки" transform="translate(487.000000, 103.000000)">
                <path d="M13,159.388246 C10.1837815,158.681294 7.32011194,158.917199 4.86926633,160.282241 C2.41921158,161.648811 0.774242609,163.925409 0,166.633354 C2.81700937,167.340305 5.68146977,167.102873 8.13152452,165.737067 C10.5823701,164.371261 12.2257574,162.095427 13,159.388246 Z" id="Fill-61-Copy-6"></path>
            </g>
        </g>
    </g>
</svg>