<?xml version="1.0" encoding="UTF-8"?>
<svg width="24px" height="40px" viewBox="0 0 24 40" version="1.1" xmlns="http://www.w3.org/2000/svg" xmlns:xlink="http://www.w3.org/1999/xlink">
    <!-- Generator: Sketch 48.2 (47327) - http://www.bohemiancoding.com/sketch -->
    <title>Group 7</title>
    <desc>Created with Sketch.</desc>
    <defs></defs>
    <g id="Новости-" stroke="none" stroke-width="1" fill="none" fill-rule="evenodd" transform="translate(-166.000000, -637.000000)" opacity="0.896795743">
        <g id="Group-5-Copy-2" transform="translate(154.000000, 558.000000)" fill="#859938">
            <g id="Group-7" transform="translate(12.000000, 79.000000)">
                <path d="M20.7057285,35.7730776 C23.5336273,34.1405798 25.4298434,31.4203583 26.3232003,28.1845632 C23.0737174,27.3395699 19.7694833,27.6215385 16.9415845,29.2531239 C14.1145982,30.8865343 12.2165571,33.6076682 11.3232003,36.8443758 C14.5735957,37.6893692 17.8787423,37.4055755 20.7057285,35.7730776" id="Fill-61-Copy-7" transform="translate(18.823200, 32.514176) rotate(-25.000000) translate(-18.823200, -32.514176) "></path>
                <path d="M6.67619681,10.7589016 C9.50409558,9.12640369 11.4003117,6.40618225 12.2936685,3.17038714 C9.04418561,2.32539384 5.73995152,2.60736245 2.91205275,4.2389478 C0.0850664998,5.87235819 -1.81297462,8.59349214 -2.70633148,11.8301998 C0.544063945,12.6751931 3.84921056,12.3913994 6.67619681,10.7589016" id="Fill-61-Copy-8" transform="translate(4.793669, 7.500000) rotate(90.000000) translate(-4.793669, -7.500000) "></path>
            </g>
        </g>
    </g>
</svg>