{
	"NavPageNomer": 1,
	"flats_cnt": 12,
	"flats": [
		{
			"id": 2901,
			"url": "/genplan/korpus_2/section_5/flat/k2s5f8n5r1/",
			"pic": "/upload/iblock/7b4/7b468afd0fe6ca5c14824800ae01b944.svg",
			"num": 257,
			"section": "5",
			"bld": "2",
			"floor": 8,
			"rooms": 1,
			"area": 42,
			"furnish": 0,
			"price": 3605936,
			"oldPrice": 0
		},
		{
			"id": 2924,
			"url": "/genplan/korpus_2/section_5/flat/k2s5f8n8r1/",
			"pic": "/upload/iblock/183/18379417aa7850605b5a6068c5e665a0.svg",
			"num": 260,
			"section": "5",
			"bld": "2",
			"floor": 8,
			"rooms": 1,
			"area": 38,
			"furnish": 0,
			"price": 3406790,
			"oldPrice": 0
		},
		{
			"id": 3088,
			"url": "/genplan/korpus_2/section_6/flat/k2s6f8n6r1/",
			"pic": "/upload/iblock/059/059b9e257ba7c3727d406ac8b9932e60.svg",
			"num": 321,
			"section": "6",
			"bld": "2",
			"floor": 8,
			"rooms": 1,
			"area": 40,
			"furnish": 0,
			"price": 3581721,
			"oldPrice": 0
		},
		{
			"id": 3043,
			"url": "/genplan/korpus_2/section_4/flat/k2s4f8n4r2/",
			"pic": "/upload/iblock/4e3/4e3996a79cc3d29baa1de5dbb50fa80a.svg",
			"num": 193,
			"section": "4",
			"bld": "2",
			"floor": 8,
			"rooms": 2,
			"area": 60,
			"furnish": 0,
			"price": 5199903,
			"oldPrice": 0
		},
		{
			"id": 3085,
			"url": "/genplan/korpus_2/section_5/flat/k2s5f8n7r1/",
			"pic": "/upload/iblock/a95/a9570820ed89d3286c7674e9d832ba3f.svg",
			"num": 259,
			"section": "5",
			"bld": "2",
			"floor": 8,
			"rooms": 1,
			"area": 42,
			"furnish": 0,
			"price": 3605936,
			"oldPrice": 0
		},
		{
			"id": 2856,
			"url": "/genplan/korpus_2/section_2/flat/k2s2f8n4r1/",
			"pic": "/upload/iblock/2df/2dfd34b36ededcde908fc03f12adf8e2.svg",
			"num": 126,
			"section": "2",
			"bld": "2",
			"floor": 8,
			"rooms": 1,
			"area": 41,
			"furnish": 0,
			"price": 3583621,
			"oldPrice": 0
		},
		{
			"id": 2845,
			"url": "/genplan/korpus_2/section_3/flat/k2s3f8n1r2/",
			"pic": "/upload/iblock/d9f/d9f43f34ef0503f172cc7ab5ab24533c.svg",
			"num": 159,
			"section": "3",
			"bld": "2",
			"floor": 8,
			"rooms": 2,
			"area": 60,
			"furnish": 0,
			"price": 5199903,
			"oldPrice": 0
		},
		{
			"id": 2781,
			"url": "/genplan/korpus_2/section_3/flat/k2s3f8n4r2/",
			"pic": "/upload/iblock/005/00538f62b941107c7755015725e12b5a.svg",
			"num": 162,
			"section": "3",
			"bld": "2",
			"floor": 8,
			"rooms": 2,
			"area": 65,
			"furnish": 0,
			"price": 5510070,
			"oldPrice": 0
		},
		{
			"id": 2761,
			"url": "/genplan/korpus_2/section_1/flat/k2s1f8n3r2/",
			"pic": "/upload/iblock/5be/5be764187b75db402edcb13f893d0412.svg",
			"num": 56,
			"section": "1",
			"bld": "2",
			"floor": 8,
			"rooms": 2,
			"area": 69,
			"furnish": 0,
			"price": 5641926,
			"oldPrice": 0
		},
		{
			"id": 2855,
			"url": "/genplan/korpus_2/section_2/flat/k2s2f8n2r1/",
			"pic": "/upload/iblock/85f/85f17118c84b6e22e79e7e9e5fd832ce.svg",
			"num": 124,
			"section": "2",
			"bld": "2",
			"floor": 8,
			"rooms": 1,
			"area": 39,
			"furnish": 0,
			"price": 3454896,
			"oldPrice": 0
		},
		{
			"id": 3031,
			"url": "/genplan/korpus_2/section_2/flat/k2s2f8n8r2/",
			"pic": "/upload/iblock/25a/25af4ff907317db963ef097a5238be31.svg",
			"num": 130,
			"section": "2",
			"bld": "2",
			"floor": 8,
			"rooms": 2,
			"area": 58,
			"furnish": 0,
			"price": 5057262,
			"oldPrice": 0
		},
		{
			"id": 2774,
			"url": "/genplan/korpus_2/section_5/flat/k2s5f8n6r1/",
			"pic": "/upload/iblock/543/54333482fc51c19ad99e9a940c3e843b.svg",
			"num": 258,
			"section": "5",
			"bld": "2",
			"floor": 8,
			"rooms": 1,
			"area": 42,
			"furnish": 0,
			"price": 3605936,
			"oldPrice": 0
		}
	],
	"limit": 12,
	"offset": 0,
	"total": "108",
	"NavPageCount": 9,
	"prices": [3406790, 5641926],
	"floors": [8, 8],
	"areas": [38, 69]
}
