<?xml version="1.0" encoding="UTF-8"?>
<svg width="126px" height="149px" viewBox="0 0 126 149" version="1.1" xmlns="http://www.w3.org/2000/svg" xmlns:xlink="http://www.w3.org/1999/xlink">
    <!-- Generator: Sketch 48.2 (47327) - http://www.bohemiancoding.com/sketch -->
    <title>Group 16</title>
    <desc>Created with Sketch.</desc>
    <defs></defs>
    <g id="О-проекте-(23.11.17)" stroke="none" stroke-width="1" fill="none" fill-rule="evenodd" transform="translate(-194.000000, -1440.000000)">
        <g id="Group-13" transform="translate(177.000000, 1416.000000)">
            <g id="Group-16" transform="translate(14.000000, 23.000000)">
                <g id="Group-6-Copy-3" transform="translate(74.500000, 75.000000) rotate(-90.000000) translate(-74.500000, -75.000000) translate(0.000000, 47.000000)">
                    <g id="Group-6">
                        <path d="M97.7393879,46.2788563 C102.845313,43.3504428 106.269034,38.4708447 107.882039,32.6663984 C102.014921,31.1506292 96.0489461,31.6564312 90.9430209,34.5832079 C85.8387434,37.5132584 82.4117268,42.3944933 80.7987224,48.2005766 C86.6674882,49.7163457 92.6351104,49.2072699 97.7393879,46.2788563" id="Fill-61-Copy-3" fill="#B0C757" transform="translate(94.340381, 40.432961) rotate(75.000000) translate(-94.340381, -40.432961) "></path>
                        <path d="M114.219144,14.4448921 C119.325069,11.5164785 122.748791,6.63688047 124.361795,0.832434106 C118.494677,-0.683335023 112.528702,-0.177533014 107.422777,2.74924366 C102.3185,5.67929414 98.8914831,10.5605291 97.2784787,16.3666123 C103.147245,17.8823815 109.114867,17.3733056 114.219144,14.4448921" id="Fill-61-Copy-4" fill="#B0C757" transform="translate(110.820137, 8.598997) rotate(180.000000) translate(-110.820137, -8.598997) "></path>
                        <path d="M52.6211519,14.4448921 C57.727077,11.5164785 61.1507984,6.63688047 62.7638028,0.832434106 C56.8966846,-0.683335023 50.9307101,-0.177533014 45.8247849,2.74924366 C40.7205073,5.67929414 37.2934908,10.5605291 35.6804863,16.3666123 C41.5492522,17.8823815 47.5168743,17.3733056 52.6211519,14.4448921" id="Fill-61-Copy-8" fill="#B0C757" transform="translate(49.222145, 8.598997) rotate(180.000000) translate(-49.222145, -8.598997) "></path>
                        <rect id="Rectangle-16-Copy-3" fill="#859938" transform="translate(133.229221, 18.909091) rotate(135.000000) translate(-133.229221, -18.909091) " x="126.884972" y="16.8080808" width="12.6884972" height="4.2020202"></rect>
                        <rect id="Rectangle-16-Copy-4" fill="#859938" transform="translate(32.778618, 28.363636) rotate(45.000000) translate(-32.778618, -28.363636) " x="24.2289113" y="26.4583264" width="17.0994131" height="3.81061988"></rect>
                        <rect id="Rectangle-16-Copy" fill="#859938" transform="translate(74.016234, 23.549053) scale(1, -1) translate(-74.016234, -23.549053) " x="0" y="21.4424989" width="148.032468" height="4.21310733"></rect>
                    </g>
                </g>
                <g id="Group-6-Copy-8" transform="translate(109.500000, 98.000000) scale(-1, 1) rotate(-90.000000) translate(-109.500000, -98.000000) translate(57.500000, 78.500000)" fill="#EFEFEF">
                    <g id="Group-6">
                        <path d="M68.0685023,32.2299178 C71.6244145,30.1904869 74.0087919,26.7921954 75.1321342,22.7498131 C71.0461054,21.6941882 66.8912303,22.0464432 63.3353182,24.0847341 C59.7805534,26.125305 57.3938812,29.5247364 56.2705388,33.5682587 C60.357715,34.6238836 64.5137376,34.2693487 68.0685023,32.2299178" id="Fill-61-Copy-3" transform="translate(65.701337, 28.158669) rotate(75.000000) translate(-65.701337, -28.158669) "></path>
                        <path d="M79.5454754,10.0598355 C83.1013876,8.02040467 85.485765,4.62211318 86.6091074,0.579730895 C82.5230786,-0.475894034 78.3682035,-0.123639063 74.8122913,1.91465184 C71.2575266,3.9552227 68.8708543,7.35465417 67.7475119,11.3981764 C71.8346882,12.4538014 75.9907107,12.0992664 79.5454754,10.0598355" id="Fill-61-Copy-4" transform="translate(77.178310, 5.988587) rotate(180.000000) translate(-77.178310, -5.988587) "></path>
                        <path d="M36.6468736,10.0598355 C40.2027858,8.02040467 42.5871632,4.62211318 43.7105055,0.579730895 C39.6244768,-0.475894034 35.4696016,-0.123639063 31.9136895,1.91465184 C28.3589247,3.9552227 25.9722525,7.35465417 24.8489101,11.3981764 C28.9360864,12.4538014 33.0921089,12.0992664 36.6468736,10.0598355" id="Fill-61-Copy-8" transform="translate(34.279708, 5.988587) rotate(180.000000) translate(-34.279708, -5.988587) "></path>
                        <rect id="Rectangle-16-Copy-3" transform="translate(92.784636, 13.168831) rotate(135.000000) translate(-92.784636, -13.168831) " x="88.3663199" y="11.7056277" width="8.83663199" height="2.92640693"></rect>
                        <rect id="Rectangle-16-Copy-4" transform="translate(22.827966, 19.753247) rotate(45.000000) translate(-22.827966, -19.753247) " x="16.8737061" y="18.4263345" width="11.9085199" height="2.65382456"></rect>
                        <rect id="Rectangle-16-Copy" transform="translate(51.547020, 16.400233) scale(1, -1) translate(-51.547020, -16.400233) " x="0" y="14.9331689" width="103.09404" height="2.93412832"></rect>
                    </g>
                </g>
                <g id="Group-6-Copy-9" transform="translate(19.500000, 98.000000) scale(-1, 1) rotate(-90.000000) translate(-19.500000, -98.000000) translate(-32.500000, 78.500000)" fill="#EFEFEF">
                    <g id="Group-6">
                        <path d="M68.0685023,32.2299178 C71.6244145,30.1904869 74.0087919,26.7921954 75.1321342,22.7498131 C71.0461054,21.6941882 66.8912303,22.0464432 63.3353182,24.0847341 C59.7805534,26.125305 57.3938812,29.5247364 56.2705388,33.5682587 C60.357715,34.6238836 64.5137376,34.2693487 68.0685023,32.2299178" id="Fill-61-Copy-3" transform="translate(65.701337, 28.158669) rotate(75.000000) translate(-65.701337, -28.158669) "></path>
                        <path d="M79.5454754,10.0598355 C83.1013876,8.02040467 85.485765,4.62211318 86.6091074,0.579730895 C82.5230786,-0.475894034 78.3682035,-0.123639063 74.8122913,1.91465184 C71.2575266,3.9552227 68.8708543,7.35465417 67.7475119,11.3981764 C71.8346882,12.4538014 75.9907107,12.0992664 79.5454754,10.0598355" id="Fill-61-Copy-4" transform="translate(77.178310, 5.988587) rotate(180.000000) translate(-77.178310, -5.988587) "></path>
                        <path d="M36.6468736,10.0598355 C40.2027858,8.02040467 42.5871632,4.62211318 43.7105055,0.579730895 C39.6244768,-0.475894034 35.4696016,-0.123639063 31.9136895,1.91465184 C28.3589247,3.9552227 25.9722525,7.35465417 24.8489101,11.3981764 C28.9360864,12.4538014 33.0921089,12.0992664 36.6468736,10.0598355" id="Fill-61-Copy-8" transform="translate(34.279708, 5.988587) rotate(180.000000) translate(-34.279708, -5.988587) "></path>
                        <rect id="Rectangle-16-Copy-3" transform="translate(92.784636, 13.168831) rotate(135.000000) translate(-92.784636, -13.168831) " x="88.3663199" y="11.7056277" width="8.83663199" height="2.92640693"></rect>
                        <rect id="Rectangle-16-Copy-4" transform="translate(22.827966, 19.753247) rotate(45.000000) translate(-22.827966, -19.753247) " x="16.8737061" y="18.4263345" width="11.9085199" height="2.65382456"></rect>
                        <rect id="Rectangle-16-Copy" transform="translate(51.547020, 16.400233) scale(1, -1) translate(-51.547020, -16.400233) " x="0" y="14.9331689" width="103.09404" height="2.93412832"></rect>
                    </g>
                </g>
            </g>
        </g>
    </g>
</svg>