<?xml version="1.0" encoding="UTF-8"?>
<svg width="160px" height="48px" viewBox="0 0 160 48" version="1.1" xmlns="http://www.w3.org/2000/svg" xmlns:xlink="http://www.w3.org/1999/xlink">
    <!-- Generator: Sketch 48.2 (47327) - http://www.bohemiancoding.com/sketch -->
    <title>Rectangle 7</title>
    <desc>Created with Sketch.</desc>
    <defs></defs>
    <g id="О-проекте-(23.11.17)" stroke="none" stroke-width="1" fill="none" fill-rule="evenodd" transform="translate(-1102.000000, -2646.000000)">
        <path d="M1250,2687 L1235,2687 L1235,2693 C1235,2693.55228 1234.55228,2694 1234,2694 L1231,2694 C1230.44772,2694 1230,2693.55228 1230,2693 L1230,2687 L1215,2687 L1215,2693 C1215,2693.55228 1214.55228,2694 1214,2694 L1211,2694 C1210.44772,2694 1210,2693.55228 1210,2693 L1210,2687 L1195,2687 L1195,2693 C1195,2693.55228 1194.55228,2694 1194,2694 L1191,2694 C1190.44772,2694 1190,2693.55228 1190,2693 L1190,2687 L1175,2687 L1175,2693 C1175,2693.55228 1174.55228,2694 1174,2694 L1171,2694 C1170.44772,2694 1170,2693.55228 1170,2693 L1170,2687 L1155,2687 L1155,2693 C1155,2693.55228 1154.55228,2694 1154,2694 L1151,2694 C1150.44772,2694 1150,2693.55228 1150,2693 L1150,2687 L1135,2687 L1135,2693 C1135,2693.55228 1134.55228,2694 1134,2694 L1131,2694 C1130.44772,2694 1130,2693.55228 1130,2693 L1130,2687 L1115,2687 L1115,2693 C1115,2693.55228 1114.55228,2694 1114,2694 L1111,2694 C1110.44772,2694 1110,2693.55228 1110,2693 L1110,2687 L1102,2687 L1102,2682 L1110,2682 L1110,2658 L1102,2658 L1102,2653 L1110,2653 L1110,2647 C1110,2646.44772 1110.44772,2646 1111,2646 L1114,2646 C1114.55228,2646 1115,2646.44772 1115,2647 L1115,2653 L1130,2653 L1130,2647 C1130,2646.44772 1130.44772,2646 1131,2646 L1134,2646 C1134.55228,2646 1135,2646.44772 1135,2647 L1135,2653 L1150,2653 L1150,2647 C1150,2646.44772 1150.44772,2646 1151,2646 L1154,2646 C1154.55228,2646 1155,2646.44772 1155,2647 L1155,2653 L1170,2653 L1170,2647 C1170,2646.44772 1170.44772,2646 1171,2646 L1174,2646 C1174.55228,2646 1175,2646.44772 1175,2647 L1175,2653 L1190,2653 L1190,2647 C1190,2646.44772 1190.44772,2646 1191,2646 L1194,2646 C1194.55228,2646 1195,2646.44772 1195,2647 L1195,2653 L1210,2653 L1210,2647 C1210,2646.44772 1210.44772,2646 1211,2646 L1214,2646 C1214.55228,2646 1215,2646.44772 1215,2647 L1215,2653 L1230,2653 L1230,2647 C1230,2646.44772 1230.44772,2646 1231,2646 L1234,2646 C1234.55228,2646 1235,2646.44772 1235,2647 L1235,2653 L1250,2653 L1250,2647 C1250,2646.44772 1250.44772,2646 1251,2646 L1254,2646 C1254.55228,2646 1255,2646.44772 1255,2647 L1255,2653 L1262,2653 L1262,2658 L1255,2658 L1255,2682 L1262,2682 L1262,2687 L1255,2687 L1255,2693 C1255,2693.55228 1254.55228,2694 1254,2694 L1251,2694 C1250.44772,2694 1250,2693.55228 1250,2693 L1250,2687 Z M1250,2682 L1250,2658 L1235,2658 L1235,2682 L1250,2682 Z M1230,2658 L1215,2658 L1215,2682 L1230,2682 L1230,2658 Z M1210,2682 L1210,2658 L1195,2658 L1195,2682 L1210,2682 Z M1190,2658 L1175,2658 L1175,2682 L1190,2682 L1190,2658 Z M1170,2682 L1170,2658 L1155,2658 L1155,2682 L1170,2682 Z M1150,2658 L1135,2658 L1135,2682 L1150,2682 L1150,2658 Z M1130,2682 L1130,2658 L1115,2658 L1115,2682 L1130,2682 Z" id="Rectangle-7" fill="#FFFFFF"></path>
    </g>
</svg>