<svg xmlns="http://www.w3.org/2000/svg" width="65" height="23" viewBox="0 0 65 23">
    <g fill="none" fill-rule="evenodd">
        <path fill="#91A34C" d="M35.5 19.923c1.824 1.826 4.29 2.717 6.943 2.737-.02-2.654-.91-5.12-2.735-6.945-1.826-1.825-4.292-2.717-6.947-2.737.02 2.655.913 5.12 2.738 6.945M47.033 1.213c-2.235 1.29-3.734 3.441-4.44 6 2.568.667 5.18.444 7.416-.845 2.235-1.292 3.736-3.443 4.442-6.002-2.57-.668-5.183-.443-7.418.847"/>
        <path fill="#FFF" d="M0 11.111h64.815V9.26H0z"/>
        <path fill="#FFF" d="M60.952 7.024l-3.928 3.928-1.31-1.31 3.929-3.928zM8.595 9.26l5.294 5.293-1.188 1.188-5.294-5.294z"/>
    </g>
</svg>
