<?xml version="1.0" encoding="UTF-8"?>
<svg width="544px" height="342px" viewBox="0 0 544 342" version="1.1" xmlns="http://www.w3.org/2000/svg" xmlns:xlink="http://www.w3.org/1999/xlink">
    <!-- Generator: Sketch 49 (51002) - http://www.bohemiancoding.com/sketch -->
    <title>Group 16 Copy</title>
    <desc>Created with Sketch.</desc>
    <defs></defs>
    <g id="Page-1" stroke="none" stroke-width="1" fill="none" fill-rule="evenodd">
        <g id="Group-16-Copy">
            <g id="k2_2fl_2s">
                <g id="k2_x5F_2fl_x5F_s2_x5F_prod" transform="translate(7.000000, 4.000000)" fill-rule="nonzero">
                    <rect id="Rectangle-path" fill="#EAE7E8" x="320.058252" y="101.741538" width="104.970874" height="84.2707692"></rect>
                    <polygon id="Shape" fill="#EAE7E8" points="429.145631 101.741538 429.145631 186.012308 453.84466 186.012308 453.84466 214.787692 530 214.787692 530 101.741538 482.660194 101.741538 482.660194 118.184615 501.184466 118.184615 501.184466 122.295385 478.543689 122.295385 478.543689 101.741538"></polygon>
                    <polygon id="Shape" fill="#EAE7E8" points="530 218.898462 530 330.916923 482.660194 330.916923 482.660194 314.473846 501.184466 314.473846 501.184466 310.363077 478.543689 310.363077 478.543689 330.916923 429.145631 330.916923 429.145631 218.898462"></polygon>
                    <polygon id="Shape" fill="#A6B961" points="425.029126 218.898462 425.029126 330.916923 376.660194 330.916923 376.660194 310.363077 354.019417 310.363077 354.019417 314.473846 372.543689 314.473846 372.543689 330.916923 325.203883 330.916923 325.203883 218.898462"></polygon>
                    <polygon id="Shape" fill="#A6B961" points="321.087379 218.898462 321.087379 330.916923 273.747573 330.916923 273.747573 314.473846 292.271845 314.473846 292.271845 310.363077 269.631068 310.363077 269.631068 330.916923 221.262136 330.916923 221.262136 218.898462"></polygon>
                    <polygon id="Shape" fill="#EAE7E8" points="217.145631 218.898462 217.145631 330.916923 169.805825 330.916923 169.805825 310.363077 146.135922 310.363077 146.135922 314.473846 165.68932 314.473846 165.68932 330.916923 117.320388 330.916923 117.320388 218.898462"></polygon>
                    <polygon id="Shape" fill="#EAE7E8" points="113.203883 330.916923 58.6601942 330.916923 58.6601942 334 8.23300971 334 8.23300971 317.556923 41.1650485 317.556923 41.1650485 310.363077 0 310.363077 0 166.486154 20.5825243 166.486154 20.5825243 107.907692 106 107.907692 106 166.486154 113.203883 166.486154"></polygon>
                    <polygon id="Shape" fill="#EAE7E8" points="106 79.1323077 106 103.796923 20.5825243 103.796923 20.5825243 56.5230769 37.0485437 56.5230769 37.0485437 75.0215385 41.1650485 75.0215385 41.1650485 52.4123077 20.5825243 52.4123077 20.5825243 0 219.203883 0 219.203883 47.2738462 142.019417 47.2738462 142.019417 79.1323077"></polygon>
                    <polygon id="Shape" fill="#EAE7E8" points="146.135922 51.3846154 146.135922 129.489231 230.524272 129.489231 230.524272 126.406154 253.165049 126.406154 253.165049 95.5753846 230.524272 95.5753846 230.524272 51.3846154"></polygon>
                    <g id="Group" transform="translate(181.126214, 85.298462)" fill="#81818C">
                        <path d="M8.23300971,11.0990769 C7.10097087,11.0990769 6.17475728,12.024 6.17475728,13.1544615 C6.17475728,13.6683077 6.38058252,14.2849231 6.79223301,14.5932308 L6.79223301,16.4430769 C6.79223301,17.2652308 7.40970874,17.8818462 8.23300971,17.8818462 C9.05631068,17.8818462 9.67378641,17.2652308 9.67378641,16.4430769 L9.67378641,14.5932308 C10.0854369,14.1821538 10.2912621,13.6683077 10.2912621,13.1544615 C10.2912621,12.024 9.36504854,11.0990769 8.23300971,11.0990769 Z M8.95339806,13.8738462 C8.74757282,14.0793846 8.64466019,14.2849231 8.64466019,14.5932308 L8.64466019,16.4430769 C8.64466019,16.6486154 8.43883495,16.8541538 8.23300971,16.8541538 C8.02718447,16.8541538 7.82135922,16.6486154 7.82135922,16.4430769 L7.82135922,14.5932308 C7.82135922,14.2849231 7.7184466,14.0793846 7.51262136,13.8738462 C7.30679612,13.6683077 7.2038835,13.36 7.2038835,13.1544615 C7.2038835,12.5378462 7.7184466,12.1267692 8.23300971,12.1267692 C8.74757282,12.1267692 9.26213592,12.6406154 9.26213592,13.1544615 C9.26213592,13.4627692 9.1592233,13.6683077 8.95339806,13.8738462 Z" id="Shape"></path>
                        <path d="M14.2019417,8.42707692 L12.761165,8.42707692 L12.761165,4.52184615 C12.761165,2.05538462 10.7029126,0 8.23300971,0 C5.7631068,0 3.70485437,2.05538462 3.70485437,4.52184615 L3.70485437,8.42707692 L2.26407767,8.42707692 C1.4407767,8.42707692 0.823300971,9.04369231 0.823300971,9.86584615 L0.823300971,19.0123077 C0.823300971,19.8344615 1.4407767,20.4510769 2.26407767,20.4510769 L14.2019417,20.4510769 C15.0252427,20.4510769 15.6427184,19.8344615 15.6427184,19.0123077 L15.6427184,9.86584615 C15.7456311,9.04369231 15.0252427,8.42707692 14.2019417,8.42707692 Z M4.73398058,4.52184615 C4.73398058,2.56923077 6.2776699,1.02769231 8.23300971,1.02769231 C10.1883495,1.02769231 11.7320388,2.56923077 11.7320388,4.52184615 L11.7320388,8.42707692 L4.73398058,8.42707692 L4.73398058,4.52184615 Z M14.7165049,19.1150769 C14.7165049,19.4233846 14.5106796,19.6289231 14.2019417,19.6289231 L2.26407767,19.6289231 C1.95533981,19.6289231 1.74951456,19.4233846 1.74951456,19.1150769 L1.74951456,9.96861538 C1.74951456,9.66030769 1.95533981,9.45476923 2.26407767,9.45476923 L14.2019417,9.45476923 C14.5106796,9.45476923 14.7165049,9.66030769 14.7165049,9.96861538 L14.7165049,19.1150769 Z" id="Shape"></path>
                    </g>
                    <g id="Group" transform="translate(87.475728, 27.747692)" fill="#81818C">
                        <path d="M8.23300971,11.0990769 C7.10097087,11.0990769 6.17475728,12.024 6.17475728,13.1544615 C6.17475728,13.6683077 6.38058252,14.2849231 6.79223301,14.5932308 L6.79223301,16.4430769 C6.79223301,17.2652308 7.40970874,17.8818462 8.23300971,17.8818462 C9.05631068,17.8818462 9.67378641,17.2652308 9.67378641,16.4430769 L9.67378641,14.5932308 C10.0854369,14.1821538 10.2912621,13.6683077 10.2912621,13.1544615 C10.2912621,12.024 9.36504854,11.0990769 8.23300971,11.0990769 Z M8.95339806,13.8738462 C8.74757282,14.0793846 8.64466019,14.2849231 8.64466019,14.5932308 L8.64466019,16.4430769 C8.64466019,16.6486154 8.43883495,16.8541538 8.23300971,16.8541538 C8.02718447,16.8541538 7.82135922,16.6486154 7.82135922,16.4430769 L7.82135922,14.5932308 C7.82135922,14.2849231 7.7184466,14.0793846 7.51262136,13.8738462 C7.30679612,13.6683077 7.2038835,13.36 7.2038835,13.1544615 C7.2038835,12.5378462 7.7184466,12.1267692 8.23300971,12.1267692 C8.74757282,12.1267692 9.26213592,12.6406154 9.26213592,13.1544615 C9.26213592,13.4627692 9.1592233,13.6683077 8.95339806,13.8738462 Z" id="Shape"></path>
                        <path d="M14.2019417,8.42707692 L12.761165,8.42707692 L12.761165,4.52184615 C12.761165,2.05538462 10.7029126,7.10542736e-15 8.23300971,7.10542736e-15 C5.7631068,7.10542736e-15 3.70485437,2.05538462 3.70485437,4.52184615 L3.70485437,8.42707692 L2.26407767,8.42707692 C1.4407767,8.42707692 0.823300971,9.04369231 0.823300971,9.86584615 L0.823300971,19.0123077 C0.823300971,19.8344615 1.4407767,20.4510769 2.26407767,20.4510769 L14.2019417,20.4510769 C15.0252427,20.4510769 15.6427184,19.8344615 15.6427184,19.0123077 L15.6427184,9.86584615 C15.7456311,9.04369231 15.0252427,8.42707692 14.2019417,8.42707692 Z M4.73398058,4.52184615 C4.73398058,2.56923077 6.2776699,1.02769231 8.23300971,1.02769231 C10.1883495,1.02769231 11.7320388,2.56923077 11.7320388,4.52184615 L11.7320388,8.42707692 L4.73398058,8.42707692 L4.73398058,4.52184615 Z M14.7165049,19.1150769 C14.7165049,19.4233846 14.5106796,19.6289231 14.2019417,19.6289231 L2.26407767,19.6289231 C1.95533981,19.6289231 1.74951456,19.4233846 1.74951456,19.1150769 L1.74951456,9.96861538 C1.74951456,9.66030769 1.95533981,9.45476923 2.26407767,9.45476923 L14.2019417,9.45476923 C14.5106796,9.45476923 14.7165049,9.66030769 14.7165049,9.96861538 L14.7165049,19.1150769 Z" id="Shape"></path>
                    </g>
                    <g id="Group" transform="translate(49.398058, 213.760000)" fill="#81818C">
                        <path d="M8.23300971,11.0990769 C7.10097087,11.0990769 6.17475728,12.024 6.17475728,13.1544615 C6.17475728,13.6683077 6.38058252,14.2849231 6.79223301,14.5932308 L6.79223301,16.4430769 C6.79223301,17.2652308 7.40970874,17.8818462 8.23300971,17.8818462 C9.05631068,17.8818462 9.67378641,17.2652308 9.67378641,16.4430769 L9.67378641,14.5932308 C10.0854369,14.1821538 10.2912621,13.6683077 10.2912621,13.1544615 C10.2912621,12.024 9.36504854,11.0990769 8.23300971,11.0990769 Z M8.95339806,13.8738462 C8.74757282,14.0793846 8.64466019,14.2849231 8.64466019,14.5932308 L8.64466019,16.4430769 C8.64466019,16.6486154 8.43883495,16.8541538 8.23300971,16.8541538 C8.02718447,16.8541538 7.82135922,16.6486154 7.82135922,16.4430769 L7.82135922,14.5932308 C7.82135922,14.2849231 7.7184466,14.0793846 7.51262136,13.8738462 C7.30679612,13.6683077 7.2038835,13.36 7.2038835,13.1544615 C7.2038835,12.5378462 7.7184466,12.1267692 8.23300971,12.1267692 C8.85048544,12.1267692 9.26213592,12.6406154 9.26213592,13.1544615 C9.26213592,13.4627692 9.1592233,13.6683077 8.95339806,13.8738462 Z" id="Shape"></path>
                        <path d="M14.2019417,8.42707692 L12.761165,8.42707692 L12.761165,4.52184615 C12.761165,2.05538462 10.7029126,-2.84217094e-14 8.23300971,-2.84217094e-14 C5.7631068,-2.84217094e-14 3.70485437,2.05538462 3.70485437,4.52184615 L3.70485437,8.42707692 L2.26407767,8.42707692 C1.4407767,8.42707692 0.823300971,9.04369231 0.823300971,9.86584615 L0.823300971,19.0123077 C0.823300971,19.8344615 1.4407767,20.4510769 2.26407767,20.4510769 L14.2019417,20.4510769 C15.0252427,20.4510769 15.6427184,19.8344615 15.6427184,19.0123077 L15.6427184,9.86584615 C15.7456311,9.04369231 15.0252427,8.42707692 14.2019417,8.42707692 Z M4.73398058,4.52184615 C4.73398058,2.56923077 6.2776699,1.02769231 8.23300971,1.02769231 C10.1883495,1.02769231 11.7320388,2.56923077 11.7320388,4.52184615 L11.7320388,8.42707692 L4.73398058,8.42707692 L4.73398058,4.52184615 Z M14.7165049,19.1150769 C14.7165049,19.4233846 14.5106796,19.6289231 14.2019417,19.6289231 L2.26407767,19.6289231 C1.95533981,19.6289231 1.74951456,19.4233846 1.74951456,19.1150769 L1.74951456,9.96861538 C1.74951456,9.66030769 1.95533981,9.45476923 2.26407767,9.45476923 L14.2019417,9.45476923 C14.5106796,9.45476923 14.7165049,9.66030769 14.7165049,9.96861538 L14.7165049,19.1150769 Z" id="Shape"></path>
                    </g>
                    <g id="Group" transform="translate(158.485437, 261.033846)" fill="#81818C">
                        <path d="M8.23300971,11.0990769 C7.10097087,11.0990769 6.17475728,12.024 6.17475728,13.1544615 C6.17475728,13.6683077 6.38058252,14.2849231 6.79223301,14.5932308 L6.79223301,16.4430769 C6.79223301,17.2652308 7.40970874,17.8818462 8.23300971,17.8818462 C9.05631068,17.8818462 9.67378641,17.2652308 9.67378641,16.4430769 L9.67378641,14.5932308 C10.0854369,14.1821538 10.2912621,13.6683077 10.2912621,13.1544615 C10.2912621,12.024 9.36504854,11.0990769 8.23300971,11.0990769 Z M8.95339806,13.8738462 C8.74757282,14.0793846 8.64466019,14.2849231 8.64466019,14.5932308 L8.64466019,16.4430769 C8.64466019,16.6486154 8.43883495,16.8541538 8.23300971,16.8541538 C8.02718447,16.8541538 7.82135922,16.6486154 7.82135922,16.4430769 L7.82135922,14.5932308 C7.82135922,14.2849231 7.7184466,14.0793846 7.51262136,13.8738462 C7.30679612,13.6683077 7.2038835,13.36 7.2038835,13.1544615 C7.2038835,12.5378462 7.7184466,12.1267692 8.23300971,12.1267692 C8.74757282,12.1267692 9.26213592,12.6406154 9.26213592,13.1544615 C9.26213592,13.4627692 9.1592233,13.6683077 8.95339806,13.8738462 Z" id="Shape"></path>
                        <path d="M14.2019417,8.42707692 L12.761165,8.42707692 L12.761165,4.52184615 C12.761165,2.05538462 10.7029126,0 8.23300971,0 C5.7631068,0 3.70485437,2.05538462 3.70485437,4.52184615 L3.70485437,8.42707692 L2.26407767,8.42707692 C1.4407767,8.42707692 0.823300971,9.04369231 0.823300971,9.86584615 L0.823300971,19.0123077 C0.823300971,19.8344615 1.4407767,20.4510769 2.26407767,20.4510769 L14.2019417,20.4510769 C15.0252427,20.4510769 15.6427184,19.8344615 15.6427184,19.0123077 L15.6427184,9.86584615 C15.7456311,9.04369231 15.0252427,8.42707692 14.2019417,8.42707692 Z M4.73398058,4.52184615 C4.73398058,2.56923077 6.2776699,1.02769231 8.23300971,1.02769231 C10.1883495,1.02769231 11.7320388,2.56923077 11.7320388,4.52184615 L11.7320388,8.42707692 L4.73398058,8.42707692 L4.73398058,4.52184615 Z M14.7165049,19.1150769 C14.7165049,19.4233846 14.5106796,19.6289231 14.2019417,19.6289231 L2.26407767,19.6289231 C1.95533981,19.6289231 1.74951456,19.4233846 1.74951456,19.1150769 L1.74951456,9.96861538 C1.74951456,9.66030769 1.95533981,9.45476923 2.26407767,9.45476923 L14.2019417,9.45476923 C14.5106796,9.45476923 14.7165049,9.66030769 14.7165049,9.96861538 L14.7165049,19.1150769 Z" id="Shape"></path>
                    </g>
                    <g id="Group" transform="translate(473.398058, 261.033846)" fill="#81818C">
                        <path d="M8.23300971,11.0990769 C7.10097087,11.0990769 6.17475728,12.024 6.17475728,13.1544615 C6.17475728,13.6683077 6.38058252,14.2849231 6.79223301,14.5932308 L6.79223301,16.4430769 C6.79223301,17.2652308 7.40970874,17.8818462 8.23300971,17.8818462 C9.05631068,17.8818462 9.67378641,17.2652308 9.67378641,16.4430769 L9.67378641,14.5932308 C10.0854369,14.1821538 10.2912621,13.6683077 10.2912621,13.1544615 C10.2912621,12.024 9.36504854,11.0990769 8.23300971,11.0990769 Z M8.95339806,13.8738462 C8.74757282,14.0793846 8.64466019,14.2849231 8.64466019,14.5932308 L8.64466019,16.4430769 C8.64466019,16.6486154 8.43883495,16.8541538 8.23300971,16.8541538 C8.02718447,16.8541538 7.82135922,16.6486154 7.82135922,16.4430769 L7.82135922,14.5932308 C7.82135922,14.2849231 7.7184466,14.0793846 7.51262136,13.8738462 C7.30679612,13.6683077 7.2038835,13.36 7.2038835,13.1544615 C7.2038835,12.5378462 7.7184466,12.1267692 8.23300971,12.1267692 C8.85048544,12.1267692 9.26213592,12.6406154 9.26213592,13.1544615 C9.26213592,13.4627692 9.1592233,13.6683077 8.95339806,13.8738462 Z" id="Shape"></path>
                        <path d="M14.2019417,8.42707692 L12.761165,8.42707692 L12.761165,4.52184615 C12.761165,2.05538462 10.7029126,0 8.23300971,0 C5.7631068,0 3.70485437,2.05538462 3.70485437,4.52184615 L3.70485437,8.42707692 L2.26407767,8.42707692 C1.4407767,8.42707692 0.823300971,9.04369231 0.823300971,9.86584615 L0.823300971,19.0123077 C0.823300971,19.8344615 1.4407767,20.4510769 2.26407767,20.4510769 L14.2019417,20.4510769 C15.0252427,20.4510769 15.6427184,19.8344615 15.6427184,19.0123077 L15.6427184,9.86584615 C15.7456311,9.04369231 15.0252427,8.42707692 14.2019417,8.42707692 Z M4.73398058,4.52184615 C4.73398058,2.56923077 6.2776699,1.02769231 8.23300971,1.02769231 C10.1883495,1.02769231 11.7320388,2.56923077 11.7320388,4.52184615 L11.7320388,8.42707692 L4.73398058,8.42707692 L4.73398058,4.52184615 Z M14.7165049,19.1150769 C14.7165049,19.4233846 14.5106796,19.6289231 14.2019417,19.6289231 L2.26407767,19.6289231 C1.95533981,19.6289231 1.74951456,19.4233846 1.74951456,19.1150769 L1.74951456,9.96861538 C1.74951456,9.66030769 1.95533981,9.45476923 2.26407767,9.45476923 L14.2019417,9.45476923 C14.5106796,9.45476923 14.7165049,9.66030769 14.7165049,9.96861538 L14.7165049,19.1150769 Z" id="Shape"></path>
                    </g>
                    <g id="Group" transform="translate(473.398058, 155.181538)" fill="#81818C">
                        <path d="M8.23300971,11.0990769 C7.10097087,11.0990769 6.17475728,12.024 6.17475728,13.1544615 C6.17475728,13.6683077 6.38058252,14.2849231 6.79223301,14.5932308 L6.79223301,16.4430769 C6.79223301,17.2652308 7.40970874,17.8818462 8.23300971,17.8818462 C9.05631068,17.8818462 9.67378641,17.2652308 9.67378641,16.4430769 L9.67378641,14.5932308 C10.0854369,14.1821538 10.2912621,13.6683077 10.2912621,13.1544615 C10.2912621,12.024 9.36504854,11.0990769 8.23300971,11.0990769 Z M8.95339806,13.8738462 C8.74757282,14.0793846 8.64466019,14.2849231 8.64466019,14.5932308 L8.64466019,16.4430769 C8.64466019,16.6486154 8.43883495,16.8541538 8.23300971,16.8541538 C8.02718447,16.8541538 7.82135922,16.6486154 7.82135922,16.4430769 L7.82135922,14.5932308 C7.82135922,14.2849231 7.7184466,14.0793846 7.51262136,13.8738462 C7.30679612,13.6683077 7.2038835,13.36 7.2038835,13.1544615 C7.2038835,12.5378462 7.7184466,12.1267692 8.23300971,12.1267692 C8.85048544,12.1267692 9.26213592,12.6406154 9.26213592,13.1544615 C9.26213592,13.4627692 9.1592233,13.6683077 8.95339806,13.8738462 Z" id="Shape"></path>
                        <path d="M14.2019417,8.42707692 L12.761165,8.42707692 L12.761165,4.52184615 C12.761165,2.05538462 10.7029126,-2.84217094e-14 8.23300971,-2.84217094e-14 C5.7631068,-2.84217094e-14 3.70485437,2.05538462 3.70485437,4.52184615 L3.70485437,8.42707692 L2.26407767,8.42707692 C1.4407767,8.42707692 0.823300971,9.04369231 0.823300971,9.86584615 L0.823300971,19.0123077 C0.823300971,19.8344615 1.4407767,20.4510769 2.26407767,20.4510769 L14.2019417,20.4510769 C15.0252427,20.4510769 15.6427184,19.8344615 15.6427184,19.0123077 L15.6427184,9.86584615 C15.7456311,9.04369231 15.0252427,8.42707692 14.2019417,8.42707692 Z M4.73398058,4.52184615 C4.73398058,2.56923077 6.2776699,1.02769231 8.23300971,1.02769231 C10.1883495,1.02769231 11.7320388,2.56923077 11.7320388,4.52184615 L11.7320388,8.42707692 L4.73398058,8.42707692 L4.73398058,4.52184615 Z M14.7165049,19.1150769 C14.7165049,19.4233846 14.5106796,19.6289231 14.2019417,19.6289231 L2.26407767,19.6289231 C1.95533981,19.6289231 1.74951456,19.4233846 1.74951456,19.1150769 L1.74951456,9.96861538 C1.74951456,9.66030769 1.95533981,9.45476923 2.26407767,9.45476923 L14.2019417,9.45476923 C14.5106796,9.45476923 14.7165049,9.66030769 14.7165049,9.96861538 L14.7165049,19.1150769 Z" id="Shape"></path>
                    </g>
                    <g id="Group" transform="translate(366.368932, 140.793846)" fill="#81818C">
                        <path d="M8.23300971,11.0990769 C7.10097087,11.0990769 6.17475728,12.024 6.17475728,13.1544615 C6.17475728,13.6683077 6.38058252,14.2849231 6.79223301,14.5932308 L6.79223301,16.4430769 C6.79223301,17.2652308 7.40970874,17.8818462 8.23300971,17.8818462 C9.05631068,17.8818462 9.67378641,17.2652308 9.67378641,16.4430769 L9.67378641,14.5932308 C10.0854369,14.1821538 10.2912621,13.6683077 10.2912621,13.1544615 C10.2912621,12.024 9.36504854,11.0990769 8.23300971,11.0990769 Z M8.95339806,13.8738462 C8.74757282,14.0793846 8.64466019,14.2849231 8.64466019,14.5932308 L8.64466019,16.4430769 C8.64466019,16.6486154 8.43883495,16.8541538 8.23300971,16.8541538 C8.02718447,16.8541538 7.82135922,16.6486154 7.82135922,16.4430769 L7.82135922,14.5932308 C7.82135922,14.2849231 7.7184466,14.0793846 7.51262136,13.8738462 C7.30679612,13.6683077 7.2038835,13.36 7.2038835,13.1544615 C7.2038835,12.5378462 7.7184466,12.1267692 8.23300971,12.1267692 C8.85048544,12.1267692 9.26213592,12.6406154 9.26213592,13.1544615 C9.26213592,13.4627692 9.1592233,13.6683077 8.95339806,13.8738462 Z" id="Shape"></path>
                        <path d="M14.2019417,8.42707692 L12.761165,8.42707692 L12.761165,4.52184615 C12.761165,2.05538462 10.7029126,-2.84217094e-14 8.23300971,-2.84217094e-14 C5.7631068,-2.84217094e-14 3.70485437,2.05538462 3.70485437,4.52184615 L3.70485437,8.42707692 L2.26407767,8.42707692 C1.4407767,8.42707692 0.823300971,9.04369231 0.823300971,9.86584615 L0.823300971,19.0123077 C0.823300971,19.8344615 1.4407767,20.4510769 2.26407767,20.4510769 L14.2019417,20.4510769 C15.0252427,20.4510769 15.6427184,19.8344615 15.6427184,19.0123077 L15.6427184,9.86584615 C15.7456311,9.04369231 15.0252427,8.42707692 14.2019417,8.42707692 Z M4.73398058,4.52184615 C4.73398058,2.56923077 6.2776699,1.02769231 8.23300971,1.02769231 C10.1883495,1.02769231 11.7320388,2.56923077 11.7320388,4.52184615 L11.7320388,8.42707692 L4.73398058,8.42707692 L4.73398058,4.52184615 Z M14.7165049,19.1150769 C14.7165049,19.4233846 14.5106796,19.6289231 14.2019417,19.6289231 L2.26407767,19.6289231 C1.95533981,19.6289231 1.74951456,19.4233846 1.74951456,19.1150769 L1.74951456,9.96861538 C1.74951456,9.66030769 1.95533981,9.45476923 2.26407767,9.45476923 L14.2019417,9.45476923 C14.5106796,9.45476923 14.7165049,9.66030769 14.7165049,9.96861538 L14.7165049,19.1150769 Z" id="Shape"></path>
                    </g>
                </g>
                <g id="k2_x5F_2fl_x5F_s2_x5F_1" transform="translate(327.000000, 106.000000)" fill="#FFFEFE" fill-rule="nonzero">
                    <rect id="Rectangle-path" x="0" y="0" width="105" height="84"></rect>
                </g>
                <g id="k2_x5F_2fl_x5F_s2_x5F_2" transform="translate(436.000000, 106.000000)" fill="#A4D3DA" fill-rule="nonzero">
                    <polygon id="Shape" points="0 0 0 84.2363636 24.7346939 84.2363636 24.7346939 113 101 113 101 0 53.5918367 0 53.5918367 16.4363636 72.1428571 16.4363636 72.1428571 20.5454545 49.4693878 20.5454545 49.4693878 0"></polygon>
                </g>
                <g id="k2_x5F_2fl_x5F_s2_x5F_3" transform="translate(436.000000, 223.000000)" fill="#FFFEFE" fill-rule="nonzero">
                    <polygon id="Shape" points="101 0 101 112 53.5918367 112 53.5918367 95.559633 72.1428571 95.559633 72.1428571 91.4495413 49.4693878 91.4495413 49.4693878 112 0 112 0 0"></polygon>
                </g>
                <g id="k2_x5F_2fl_x5F_s2_x5F_6" transform="translate(124.000000, 223.000000)" fill="#A6B961" fill-rule="nonzero">
                    <polygon id="Shape" points="100 0 100 112 52.5773196 112 52.5773196 91.4495413 28.8659794 91.4495413 28.8659794 95.559633 48.4536082 95.559633 48.4536082 112 0 112 0 0"></polygon>
                </g>
                <g id="k2_x5F_2fl_x5F_s2_x5F_7" transform="translate(7.000000, 112.000000)" fill="#FFFEFE" fill-rule="nonzero">
                    <polygon id="Shape" points="113 222.918182 58.5545455 222.918182 58.5545455 226 8.21818182 226 8.21818182 209.563636 41.0909091 209.563636 41.0909091 202.372727 0 202.372727 0 58.5545455 20.5454545 58.5545455 20.5454545 0 105.809091 0 105.809091 58.5545455 113 58.5545455"></polygon>
                </g>
                <g id="k2_x5F_2fl_x5F_s2_x5F_8" transform="translate(28.000000, 4.000000)" fill="#A4D3DA" fill-rule="nonzero">
                    <polygon id="Shape" points="85.1502591 79.2871287 85.1502591 104 0 104 0 56.6336634 16.4145078 56.6336634 16.4145078 75.1683168 20.5181347 75.1683168 20.5181347 52.5148515 0 52.5148515 0 0 198 0 198 47.3663366 121.056995 47.3663366 121.056995 79.2871287"></polygon>
                </g>
                <g id="k2_x5F_2fl_x5F_s2_x5F_9" transform="translate(153.000000, 55.000000)" fill="#A6B961" fill-rule="nonzero">
                    <polygon id="Shape" points="0 0 0 78 84.3653846 78 84.3653846 74.9210526 107 74.9210526 107 44.1315789 84.3653846 44.1315789 84.3653846 0"></polygon>
                </g>
                <g id="k2_x5F_2fl_x5F_s2">
                    <g id="s" fill="#81818C" fill-rule="nonzero">
                        <rect id="Rectangle-path" x="532.688091" y="98.5945946" width="11.3119093" height="7.18918919"></rect>
                        <rect id="Rectangle-path" x="477.1569" y="98.5945946" width="19.5387524" height="7.18918919"></rect>
                        <rect id="Rectangle-path" x="496.695652" y="98.5945946" width="35.9924386" height="1.02702703"></rect>
                        <rect id="Rectangle-path" x="496.695652" y="104.756757" width="35.9924386" height="1.02702703"></rect>
                        <rect id="Rectangle-path" x="496.695652" y="101.675676" width="35.9924386" height="1.02702703"></rect>
                        <rect id="Rectangle-path" x="421.625709" y="98.5945946" width="18.510397" height="7.18918919"></rect>
                        <rect id="Rectangle-path" x="440.136106" y="98.5945946" width="37.020794" height="1.02702703"></rect>
                        <rect id="Rectangle-path" x="440.136106" y="104.756757" width="37.020794" height="1.02702703"></rect>
                        <rect id="Rectangle-path" x="440.136106" y="101.675676" width="37.020794" height="1.02702703"></rect>
                        <rect id="Rectangle-path" x="360.952741" y="98.5945946" width="23.6521739" height="7.18918919"></rect>
                        <rect id="Rectangle-path" x="384.604915" y="98.5945946" width="37.020794" height="1.02702703"></rect>
                        <rect id="Rectangle-path" x="384.604915" y="104.756757" width="37.020794" height="1.02702703"></rect>
                        <rect id="Rectangle-path" x="384.604915" y="101.675676" width="37.020794" height="1.02702703"></rect>
                        <rect id="Rectangle-path" x="319.818526" y="98.5945946" width="14.3969754" height="7.18918919"></rect>
                        <rect id="Rectangle-path" x="334.215501" y="98.5945946" width="26.7372401" height="1.02702703"></rect>
                        <rect id="Rectangle-path" x="334.215501" y="104.756757" width="26.7372401" height="1.02702703"></rect>
                        <rect id="Rectangle-path" x="334.215501" y="101.675676" width="26.7372401" height="1.02702703"></rect>
                        <rect id="Rectangle-path" x="318.79017" y="130.432432" width="8.2268431" height="7.18918919"></rect>
                        <rect id="Rectangle-path" x="237.550095" y="130.432432" width="66.8431002" height="7.18918919"></rect>
                        <rect id="Rectangle-path" x="304.393195" y="130.432432" width="14.3969754" height="1.02702703"></rect>
                        <rect id="Rectangle-path" x="304.393195" y="136.594595" width="14.3969754" height="1.02702703"></rect>
                        <rect id="Rectangle-path" x="304.393195" y="133.513514" width="14.3969754" height="1.02702703"></rect>
                        <rect id="Rectangle-path" x="319.818526" y="105.783784" width="7.19848771" height="24.6486486"></rect>
                        <rect id="Rectangle-path" x="237.550095" y="112.972973" width="7.19848771" height="17.4594595"></rect>
                        <rect id="Rectangle-path" x="237.550095" y="90.3783784" width="7.19848771" height="11.2972973"></rect>
                        <rect id="Rectangle-path" x="263.258979" y="95.5135135" width="1.02835539" height="34.9189189"></rect>
                        <rect id="Rectangle-path" x="244.748582" y="95.5135135" width="18.510397" height="1.02702703"></rect>
                        <rect id="Rectangle-path" x="260.173913" y="98.5945946" width="1.02835539" height="31.8378378"></rect>
                        <rect id="Rectangle-path" x="244.748582" y="98.5945946" width="15.4253308" height="1.02702703"></rect>
                        <rect id="Rectangle-path" x="226.238185" y="48.2702703" width="18.510397" height="7.18918919"></rect>
                        <rect id="Rectangle-path" x="226.238185" y="36.972973" width="7.19848771" height="11.2972973"></rect>
                        <rect id="Rectangle-path" x="226.238185" y="0" width="7.19848771" height="10.2702703"></rect>
                        <rect id="Rectangle-path" x="226.238185" y="10.2702703" width="1.02835539" height="26.7027027"></rect>
                        <rect id="Rectangle-path" x="229.323251" y="10.2702703" width="1.02835539" height="26.7027027"></rect>
                        <rect id="Rectangle-path" x="232.408318" y="10.2702703" width="1.02835539" height="26.7027027"></rect>
                        <rect id="Rectangle-path" x="237.550095" y="55.4594595" width="7.19848771" height="7.18918919"></rect>
                        <rect id="Rectangle-path" x="237.550095" y="62.6486486" width="1.02835539" height="27.7297297"></rect>
                        <rect id="Rectangle-path" x="240.635161" y="62.6486486" width="1.02835539" height="27.7297297"></rect>
                        <rect id="Rectangle-path" x="243.720227" y="62.6486486" width="1.02835539" height="27.7297297"></rect>
                        <rect id="Rectangle-path" x="322.903592" y="137.621622" width="4.11342155" height="52.3783784"></rect>
                        <rect id="Rectangle-path" x="322.903592" y="190" width="65.8147448" height="4.10810811"></rect>
                        <rect id="Rectangle-path" x="404.143667" y="190" width="52.4461248" height="4.10810811"></rect>
                        <rect id="Rectangle-path" x="456.589792" y="190" width="4.11342155" height="6.16216216"></rect>
                        <rect id="Rectangle-path" x="456.589792" y="210.540541" width="4.11342155" height="8.21621622"></rect>
                        <rect id="Rectangle-path" x="536.801512" y="105.783784" width="7.19848771" height="229.027027"></rect>
                        <rect id="Rectangle-path" x="532.688091" y="334.810811" width="11.3119093" height="7.18918919"></rect>
                        <rect id="Rectangle-path" x="495.667297" y="334.810811" width="37.020794" height="1.02702703"></rect>
                        <rect id="Rectangle-path" x="495.667297" y="337.891892" width="37.020794" height="1.02702703"></rect>
                        <rect id="Rectangle-path" x="495.667297" y="340.972973" width="37.020794" height="1.02702703"></rect>
                        <rect id="Rectangle-path" x="476.128544" y="334.810811" width="19.5387524" height="7.18918919"></rect>
                        <rect id="Rectangle-path" x="449.391304" y="334.810811" width="26.7372401" height="1.02702703"></rect>
                        <rect id="Rectangle-path" x="449.391304" y="337.891892" width="26.7372401" height="1.02702703"></rect>
                        <rect id="Rectangle-path" x="449.391304" y="340.972973" width="26.7372401" height="1.02702703"></rect>
                        <rect id="Rectangle-path" x="423.68242" y="334.810811" width="25.7088847" height="7.18918919"></rect>
                        <rect id="Rectangle-path" x="387.689981" y="334.810811" width="35.9924386" height="1.02702703"></rect>
                        <rect id="Rectangle-path" x="387.689981" y="337.891892" width="35.9924386" height="1.02702703"></rect>
                        <rect id="Rectangle-path" x="387.689981" y="340.972973" width="35.9924386" height="1.02702703"></rect>
                        <rect id="Rectangle-path" x="370.20794" y="334.810811" width="17.4820416" height="7.18918919"></rect>
                        <rect id="Rectangle-path" x="334.215501" y="334.810811" width="35.9924386" height="1.02702703"></rect>
                        <rect id="Rectangle-path" x="334.215501" y="337.891892" width="35.9924386" height="1.02702703"></rect>
                        <rect id="Rectangle-path" x="334.215501" y="340.972973" width="35.9924386" height="1.02702703"></rect>
                        <rect id="Rectangle-path" x="318.79017" y="334.810811" width="15.4253308" height="7.18918919"></rect>
                        <rect id="Rectangle-path" x="282.797732" y="334.810811" width="35.9924386" height="1.02702703"></rect>
                        <rect id="Rectangle-path" x="282.797732" y="337.891892" width="35.9924386" height="1.02702703"></rect>
                        <rect id="Rectangle-path" x="282.797732" y="340.972973" width="35.9924386" height="1.02702703"></rect>
                        <rect id="Rectangle-path" x="271.485822" y="334.810811" width="11.3119093" height="7.18918919"></rect>
                        <rect id="Rectangle-path" x="235.493384" y="334.810811" width="35.9924386" height="1.02702703"></rect>
                        <rect id="Rectangle-path" x="235.493384" y="337.891892" width="35.9924386" height="1.02702703"></rect>
                        <rect id="Rectangle-path" x="235.493384" y="340.972973" width="35.9924386" height="1.02702703"></rect>
                        <rect id="Rectangle-path" x="219.039698" y="334.810811" width="16.4536862" height="7.18918919"></rect>
                        <rect id="Rectangle-path" x="182.018904" y="334.810811" width="37.020794" height="1.02702703"></rect>
                        <rect id="Rectangle-path" x="182.018904" y="337.891892" width="37.020794" height="1.02702703"></rect>
                        <rect id="Rectangle-path" x="182.018904" y="340.972973" width="37.020794" height="1.02702703"></rect>
                        <rect id="Rectangle-path" x="162.480151" y="334.810811" width="19.5387524" height="7.18918919"></rect>
                        <rect id="Rectangle-path" x="135.742911" y="334.810811" width="26.7372401" height="1.02702703"></rect>
                        <rect id="Rectangle-path" x="135.742911" y="337.891892" width="26.7372401" height="1.02702703"></rect>
                        <rect id="Rectangle-path" x="135.742911" y="340.972973" width="26.7372401" height="1.02702703"></rect>
                        <rect id="Rectangle-path" x="115.175803" y="334.810811" width="20.5671078" height="7.18918919"></rect>
                        <rect id="Rectangle-path" x="78.1550095" y="334.810811" width="37.020794" height="1.02702703"></rect>
                        <rect id="Rectangle-path" x="78.1550095" y="337.891892" width="37.020794" height="1.02702703"></rect>
                        <rect id="Rectangle-path" x="78.1550095" y="340.972973" width="37.020794" height="1.02702703"></rect>
                        <rect id="Rectangle-path" x="0" y="252.648649" width="7.19848771" height="68.8108108"></rect>
                        <rect id="Rectangle-path" x="7.19848771" y="314.27027" width="25.7088847" height="7.18918919"></rect>
                        <rect id="Rectangle-path" x="58.6162571" y="314.27027" width="14.3969754" height="7.18918919"></rect>
                        <rect id="Rectangle-path" x="65.8147448" y="321.459459" width="7.19848771" height="20.5405405"></rect>
                        <rect id="Rectangle-path" x="73.0132325" y="334.810811" width="5.14177694" height="7.18918919"></rect>
                        <rect id="Rectangle-path" x="11.3119093" y="340.972973" width="54.5028355" height="1.02702703"></rect>
                        <rect id="Rectangle-path" x="11.3119093" y="321.459459" width="1.02835539" height="19.5135135"></rect>
                        <rect id="Rectangle-path" x="14.3969754" y="337.891892" width="51.4177694" height="1.02702703"></rect>
                        <rect id="Rectangle-path" x="14.3969754" y="321.459459" width="1.02835539" height="16.4324324"></rect>
                        <rect id="Rectangle-path" x="47.3043478" y="314.27027" width="1.02835539" height="7.18918919"></rect>
                        <rect id="Rectangle-path" x="32.9073724" y="314.27027" width="14.3969754" height="1.02702703"></rect>
                        <rect id="Rectangle-path" x="32.9073724" y="317.351351" width="14.3969754" height="1.02702703"></rect>
                        <rect id="Rectangle-path" x="32.9073724" y="320.432432" width="14.3969754" height="1.02702703"></rect>
                        <rect id="Rectangle-path" x="0" y="238.27027" width="1.02835539" height="14.3783784"></rect>
                        <rect id="Rectangle-path" x="3.08506616" y="238.27027" width="1.02835539" height="14.3783784"></rect>
                        <rect id="Rectangle-path" x="6.17013233" y="238.27027" width="1.02835539" height="14.3783784"></rect>
                        <rect id="Rectangle-path" x="0" y="212.594595" width="7.19848771" height="25.6756757"></rect>
                        <rect id="Rectangle-path" x="0" y="176.648649" width="1.02835539" height="35.9459459"></rect>
                        <rect id="Rectangle-path" x="3.08506616" y="176.648649" width="1.02835539" height="35.9459459"></rect>
                        <rect id="Rectangle-path" x="6.17013233" y="176.648649" width="1.02835539" height="35.9459459"></rect>
                        <rect id="Rectangle-path" x="0" y="170.486486" width="7.19848771" height="6.16216216"></rect>
                        <rect id="Rectangle-path" x="0" y="163.297297" width="27.7655955" height="7.18918919"></rect>
                        <rect id="Rectangle-path" x="20.5671078" y="156.108108" width="7.19848771" height="7.18918919"></rect>
                        <rect id="Rectangle-path" x="20.5671078" y="102.702703" width="7.19848771" height="17.4594595"></rect>
                        <rect id="Rectangle-path" x="20.5671078" y="120.162162" width="1.02835539" height="35.9459459"></rect>
                        <rect id="Rectangle-path" x="23.6521739" y="120.162162" width="1.02835539" height="35.9459459"></rect>
                        <rect id="Rectangle-path" x="26.7372401" y="120.162162" width="1.02835539" height="35.9459459"></rect>
                        <rect id="Rectangle-path" x="20.5671078" y="45.1891892" width="7.19848771" height="20.5405405"></rect>
                        <rect id="Rectangle-path" x="20.5671078" y="65.7297297" width="1.02835539" height="36.972973"></rect>
                        <rect id="Rectangle-path" x="23.6521739" y="65.7297297" width="1.02835539" height="36.972973"></rect>
                        <rect id="Rectangle-path" x="26.7372401" y="65.7297297" width="1.02835539" height="36.972973"></rect>
                        <rect id="Rectangle-path" x="20.5671078" y="0" width="7.19848771" height="17.4594595"></rect>
                        <rect id="Rectangle-path" x="20.5671078" y="17.4594595" width="1.02835539" height="27.7297297"></rect>
                        <rect id="Rectangle-path" x="23.6521739" y="17.4594595" width="1.02835539" height="27.7297297"></rect>
                        <rect id="Rectangle-path" x="26.7372401" y="17.4594595" width="1.02835539" height="27.7297297"></rect>
                        <rect id="Rectangle-path" x="27.7655955" y="0" width="198.47259" height="4.10810811"></rect>
                        <rect id="Rectangle-path" x="149.111531" y="51.3513514" width="77.1266541" height="4.10810811"></rect>
                        <rect id="Rectangle-path" x="149.111531" y="55.4594595" width="4.11342155" height="33.8918919"></rect>
                        <rect id="Rectangle-path" x="149.111531" y="103.72973" width="4.11342155" height="35.9459459"></rect>
                        <rect id="Rectangle-path" x="153.224953" y="133.513514" width="84.3251418" height="4.10810811"></rect>
                        <rect id="Rectangle-path" x="137.799622" y="83.1891892" width="11.3119093" height="4.10810811"></rect>
                        <rect id="Rectangle-path" x="113.119093" y="83.1891892" width="11.3119093" height="4.10810811"></rect>
                        <rect id="Rectangle-path" x="113.119093" y="87.2972973" width="4.11342155" height="83.1891892"></rect>
                        <rect id="Rectangle-path" x="117.232514" y="166.378378" width="7.19848771" height="4.10810811"></rect>
                        <rect id="Rectangle-path" x="27.7655955" y="107.837838" width="95.637051" height="4.10810811"></rect>
                        <rect id="Rectangle-path" x="123.402647" y="87.2972973" width="1.02835539" height="79.0810811"></rect>
                        <rect id="Rectangle-path" x="120.31758" y="170.486486" width="4.11342155" height="6.16216216"></rect>
                        <rect id="Rectangle-path" x="120.31758" y="191.027027" width="4.11342155" height="143.783784"></rect>
                        <rect id="Rectangle-path" x="124.431002" y="314.27027" width="17.4820416" height="4.10810811"></rect>
                        <rect id="Rectangle-path" x="172.763705" y="314.27027" width="4.11342155" height="20.5405405"></rect>
                        <rect id="Rectangle-path" x="163.508507" y="314.27027" width="9.25519849" height="4.10810811"></rect>
                        <rect id="Rectangle-path" x="153.224953" y="314.27027" width="1.02835539" height="4.10810811"></rect>
                        <rect id="Rectangle-path" x="154.253308" y="314.27027" width="9.25519849" height="1.02702703"></rect>
                        <rect id="Rectangle-path" x="154.253308" y="317.351351" width="9.25519849" height="1.02702703"></rect>
                        <rect id="Rectangle-path" x="310.563327" y="314.27027" width="17.4820416" height="4.10810811"></rect>
                        <rect id="Rectangle-path" transform="translate(278.684310, 324.540541) rotate(-180.000000) translate(-278.684310, -324.540541) " x="276.627599" y="314.27027" width="4.11342155" height="20.5405405"></rect>
                        <rect id="Rectangle-path" transform="translate(284.854442, 316.324324) rotate(-180.000000) translate(-284.854442, -316.324324) " x="280.741021" y="314.27027" width="8.2268431" height="4.10810811"></rect>
                        <rect id="Rectangle-path" transform="translate(298.737240, 316.324324) rotate(-180.000000) translate(-298.737240, -316.324324) " x="298.223062" y="314.27027" width="1.02835539" height="4.10810811"></rect>
                        <rect id="Rectangle-path" transform="translate(293.595463, 314.783784) rotate(-180.000000) translate(-293.595463, -314.783784) " x="288.967864" y="314.27027" width="9.25519849" height="1.02702703"></rect>
                        <rect id="Rectangle-path" transform="translate(293.595463, 317.864865) rotate(-180.000000) translate(-293.595463, -317.864865) " x="288.967864" y="317.351351" width="9.25519849" height="1.02702703"></rect>
                        <rect id="Rectangle-path" transform="translate(46.275992, 99.108108) rotate(90.000000) translate(-46.275992, -99.108108) " x="37.5349716" y="97.0540541" width="17.4820416" height="4.10810811"></rect>
                        <rect id="Rectangle-path" transform="translate(38.049149, 58.540541) rotate(-90.000000) translate(-38.049149, -58.540541) " x="35.9924386" y="48.2702703" width="4.11342155" height="20.5405405"></rect>
                        <rect id="Rectangle-path" transform="translate(46.275992, 64.702703) rotate(-90.000000) translate(-46.275992, -64.702703) " x="42.1625709" y="62.6486486" width="8.2268431" height="4.10810811"></rect>
                        <rect id="Rectangle-path" transform="translate(46.275992, 78.567568) rotate(-90.000000) translate(-46.275992, -78.567568) " x="45.7618147" y="76.5135135" width="1.02835539" height="4.10810811"></rect>
                        <rect id="Rectangle-path" transform="translate(47.818526, 73.432432) rotate(-90.000000) translate(-47.818526, -73.432432) " x="43.1909263" y="72.9189189" width="9.25519849" height="1.02702703"></rect>
                        <rect id="Rectangle-path" transform="translate(44.733459, 73.432432) rotate(-90.000000) translate(-44.733459, -73.432432) " x="40.1058601" y="72.9189189" width="9.25519849" height="1.02702703"></rect>
                        <rect id="Rectangle-path" x="519.319471" y="314.27027" width="17.4820416" height="4.10810811"></rect>
                        <rect id="Rectangle-path" transform="translate(487.440454, 324.540541) rotate(-180.000000) translate(-487.440454, -324.540541) " x="485.383743" y="314.27027" width="4.11342155" height="20.5405405"></rect>
                        <rect id="Rectangle-path" transform="translate(493.610586, 316.324324) rotate(-180.000000) translate(-493.610586, -316.324324) " x="489.497164" y="314.27027" width="8.2268431" height="4.10810811"></rect>
                        <rect id="Rectangle-path" transform="translate(507.493384, 316.324324) rotate(-180.000000) translate(-507.493384, -316.324324) " x="506.979206" y="314.27027" width="1.02835539" height="4.10810811"></rect>
                        <rect id="Rectangle-path" transform="translate(502.351607, 314.783784) rotate(-180.000000) translate(-502.351607, -314.783784) " x="497.724008" y="314.27027" width="9.25519849" height="1.02702703"></rect>
                        <rect id="Rectangle-path" transform="translate(502.351607, 317.864865) rotate(-180.000000) translate(-502.351607, -317.864865) " x="497.724008" y="317.351351" width="9.25519849" height="1.02702703"></rect>
                        <rect id="Rectangle-path" x="519.319471" y="122.216216" width="17.4820416" height="4.10810811"></rect>
                        <rect id="Rectangle-path" transform="translate(487.440454, 116.054054) rotate(-180.000000) translate(-487.440454, -116.054054) " x="485.383743" y="105.783784" width="4.11342155" height="20.5405405"></rect>
                        <rect id="Rectangle-path" transform="translate(493.610586, 124.270270) rotate(-180.000000) translate(-493.610586, -124.270270) " x="489.497164" y="122.216216" width="8.2268431" height="4.10810811"></rect>
                        <rect id="Rectangle-path" transform="translate(507.493384, 124.270270) rotate(-180.000000) translate(-507.493384, -124.270270) " x="506.979206" y="122.216216" width="1.02835539" height="4.10810811"></rect>
                        <rect id="Rectangle-path" transform="translate(502.351607, 125.810811) rotate(-180.000000) translate(-502.351607, -125.810811) " x="497.724008" y="125.297297" width="9.25519849" height="1.02702703"></rect>
                        <rect id="Rectangle-path" transform="translate(502.351607, 122.729730) rotate(-180.000000) translate(-502.351607, -122.729730) " x="497.724008" y="122.216216" width="9.25519849" height="1.02702703"></rect>
                        <rect id="Rectangle-path" transform="translate(335.758034, 124.270270) rotate(-180.000000) translate(-335.758034, -124.270270) " x="327.017013" y="122.216216" width="17.4820416" height="4.10810811"></rect>
                        <rect id="Rectangle-path" x="366.094518" y="105.783784" width="4.11342155" height="20.5405405"></rect>
                        <rect id="Rectangle-path" x="357.867675" y="122.216216" width="8.2268431" height="4.10810811"></rect>
                        <rect id="Rectangle-path" transform="translate(340.899811, 316.324324) rotate(-180.000000) translate(-340.899811, -316.324324) " x="332.15879" y="314.27027" width="17.4820416" height="4.10810811"></rect>
                        <rect id="Rectangle-path" x="379.463138" y="314.27027" width="4.11342155" height="20.5405405"></rect>
                        <rect id="Rectangle-path" x="371.236295" y="314.27027" width="8.2268431" height="4.10810811"></rect>
                        <rect id="Rectangle-path" x="360.952741" y="314.27027" width="1.02835539" height="4.10810811"></rect>
                        <rect id="Rectangle-path" x="361.981096" y="314.27027" width="9.25519849" height="1.02702703"></rect>
                        <rect id="Rectangle-path" x="361.981096" y="317.351351" width="9.25519849" height="1.02702703"></rect>
                        <rect id="Rectangle-path" x="224.181474" y="221.837838" width="4.11342155" height="112.972973"></rect>
                        <rect id="Rectangle-path" x="124.431002" y="218.756757" width="55.5311909" height="4.10810811"></rect>
                        <rect id="Rectangle-path" x="195.387524" y="218.756757" width="65.8147448" height="4.10810811"></rect>
                        <rect id="Rectangle-path" x="275.599244" y="218.756757" width="93.5803403" height="4.10810811"></rect>
                        <rect id="Rectangle-path" x="328.045369" y="222.864865" width="4.11342155" height="111.945946"></rect>
                        <rect id="Rectangle-path" x="384.604915" y="218.756757" width="55.5311909" height="4.10810811"></rect>
                        <rect id="Rectangle-path" x="453.504726" y="218.756757" width="83.2967864" height="4.10810811"></rect>
                        <rect id="Rectangle-path" x="431.909263" y="222.864865" width="4.11342155" height="111.945946"></rect>
                        <rect id="Rectangle-path" x="431.909263" y="105.783784" width="4.11342155" height="84.2162162"></rect>
                        <rect id="Rectangle-path" x="254.003781" y="182.810811" width="68.899811" height="4.10810811"></rect>
                        <rect id="Rectangle-path" x="254.003781" y="186.918919" width="4.11342155" height="7.18918919"></rect>
                        <rect id="Rectangle-path" x="258.117202" y="193.081081" width="64.7863894" height="1.02702703"></rect>
                        <rect id="Rectangle-path" x="277.655955" y="186.918919" width="4.11342155" height="11.2972973"></rect>
                        <rect id="Rectangle-path" x="300.279773" y="186.918919" width="4.11342155" height="6.16216216"></rect>
                        <rect id="Rectangle-path" x="153.224953" y="188.972973" width="76.0982987" height="4.10810811"></rect>
                        <rect id="Rectangle-path" x="209.784499" y="214.648649" width="4.11342155" height="4.10810811"></rect>
                        <rect id="Rectangle-path" x="209.784499" y="193.081081" width="4.11342155" height="4.10810811"></rect>
                        <rect id="Rectangle-path" transform="translate(279.712665, 216.702703) rotate(-180.000000) translate(-279.712665, -216.702703) " x="277.655955" y="214.648649" width="4.11342155" height="4.10810811"></rect>
                        <rect id="Rectangle-path" x="149.111531" y="158.162162" width="4.11342155" height="7.18918919"></rect>
                        <rect id="Rectangle-path" x="209.784499" y="161.243243" width="19.5387524" height="4.10810811"></rect>
                        <rect id="Rectangle-path" x="225.20983" y="165.351351" width="4.11342155" height="23.6216216"></rect>
                        <rect id="Rectangle-path" x="153.224953" y="161.243243" width="10.2835539" height="4.10810811"></rect>
                        <rect id="Rectangle-path" x="174.820416" y="161.243243" width="14.3969754" height="4.10810811"></rect>
                        <rect id="Rectangle-path" x="179.962193" y="165.351351" width="4.11342155" height="23.6216216"></rect>
                        <rect id="Rectangle-path" x="153.224953" y="165.351351" width="4.11342155" height="23.6216216"></rect>
                        <rect id="Rectangle-path" x="163.508507" y="164.324324" width="11.3119093" height="1.02702703"></rect>
                        <rect id="Rectangle-path" x="189.217391" y="164.324324" width="20.5671078" height="1.02702703"></rect>
                        <rect id="Rectangle-path" x="163.508507" y="161.243243" width="11.3119093" height="1.02702703"></rect>
                        <rect id="Rectangle-path" x="189.217391" y="161.243243" width="20.5671078" height="1.02702703"></rect>
                        <rect id="Rectangle-path" x="260.173913" y="158.162162" width="42.1625709" height="4.10810811"></rect>
                        <rect id="Rectangle-path" x="117.232514" y="140.702703" width="6.17013233" height="4.10810811"></rect>
                        <rect id="Rectangle-path" x="117.232514" y="124.27027" width="6.17013233" height="4.10810811"></rect>
                        <rect id="Rectangle-path" x="117.232514" y="99.6216216" width="6.17013233" height="4.10810811"></rect>
                    </g>
                    <g id="d" transform="translate(160.304348, 135.918919)">
                        <rect id="Rectangle-path" stroke="#81818C" x="28.3988658" y="33.027027" width="31.879017" height="14.3783784"></rect>
                        <rect id="Rectangle-path" stroke="#81818C" x="0.633270321" y="33.027027" width="15.4253308" height="14.3783784"></rect>
                        <rect id="Rectangle-path" stroke="#81818C" x="2.6899811" y="49.4594595" width="11.3119093" height="2.05405405"></rect>
                        <rect id="Rectangle-path" stroke="#81818C" x="40.7391304" y="49.4594595" width="12.3402647" height="2.05405405"></rect>
                        <path d="M28.3988658,33.027027 L60.2778828,47.4054054" id="Shape" stroke="#81818C"></path>
                        <path d="M28.3988658,47.4054054 L60.2778828,33.027027" id="Shape" stroke="#81818C"></path>
                        <path d="M0.633270321,33.027027 L16.0586011,47.4054054" id="Shape" stroke="#81818C"></path>
                        <path d="M0.633270321,47.4054054 L16.0586011,33.027027" id="Shape" stroke="#81818C"></path>
                        <g id="Group" transform="translate(95.756144, 0.675676)">
                            <rect id="Rectangle-path" stroke="#81818C" x="4.62759924" y="0.513513514" width="41.1342155" height="46.2162162"></rect>
                            <g transform="translate(0.000000, 7.189189)" id="Shape">
                                <path d="M0,4.62162162 L23.5493384,4.62162162" stroke="#81818C"></path>
                                <polygon fill="#81818C" fill-rule="nonzero" points="20.1557656 8.83243243 19.4359168 8.11351351 23.1379962 4.62162162 19.4359168 1.12972973 20.1557656 0.410810811 24.6805293 4.62162162"></polygon>
                            </g>
                            <path d="M40.6200378,1.02702703 L40.6200378,47.2432432" id="Shape" stroke="#81818C"></path>
                            <path d="M35.4782609,1.02702703 L35.4782609,47.2432432" id="Shape" stroke="#81818C"></path>
                            <path d="M30.3364839,1.02702703 L30.3364839,47.2432432" id="Shape" stroke="#81818C"></path>
                            <path d="M25.194707,1.02702703 L25.194707,47.2432432" id="Shape" stroke="#81818C"></path>
                            <path d="M20.0529301,1.02702703 L20.0529301,47.2432432" id="Shape" stroke="#81818C"></path>
                            <path d="M14.9111531,1.02702703 L14.9111531,47.2432432" id="Shape" stroke="#81818C"></path>
                            <path d="M9.76937618,1.02702703 L9.76937618,47.2432432" id="Shape" stroke="#81818C"></path>
                        </g>
                        <polyline id="Shape" stroke="#81818C" points="95.241966 1.18918919 95.241966 22.7567568 100.383743 22.7567568"></polyline>
                        <path d="M115.809074,1.18918919 L126.092628,22.7567568" id="Shape" stroke="#81818C"></path>
                        <path d="M126.092628,1.18918919 L136.376181,22.7567568" id="Shape" stroke="#81818C"></path>
                    </g>
                </g>
            </g>
            <text id="1" font-family="Verdana" font-size="18" font-weight="normal" letter-spacing="0.11999999" fill="#575759">
                <tspan x="59" y="244">1</tspan>
            </text>
            <text id="2" font-family="Verdana" font-size="18" font-weight="normal" letter-spacing="0.11999999" fill="#575759">
                <tspan x="91" y="51">2</tspan>
            </text>
            <text id="3" font-family="Verdana" font-size="18" font-weight="normal" letter-spacing="0.11999999" fill="#575759">
                <tspan x="188" y="102">3</tspan>
            </text>
            <text id="4" font-family="Verdana" font-size="18" font-weight="normal" letter-spacing="0.11999999" fill="#575759">
                <tspan x="171" y="279">4</tspan>
            </text>
            <text id="5" font-family="Verdana" font-size="18" font-weight="normal" letter-spacing="0.11999999" fill="#575759">
                <tspan x="272" y="279">5</tspan>
            </text>
            <text id="6" font-family="Verdana" font-size="18" font-weight="normal" letter-spacing="0.11999999" fill="#575759">
                <tspan x="377" y="279">6</tspan>
            </text>
            <text id="7" font-family="Verdana" font-size="18" font-weight="normal" letter-spacing="0.11999999" fill="#575759">
                <tspan x="478" y="279">7</tspan>
            </text>
            <text id="8" font-family="Verdana" font-size="18" font-weight="normal" letter-spacing="0.11999999" fill="#575759">
                <tspan x="478" y="165">8</tspan>
            </text>
            <text id="9-copy-8" font-family="Verdana" font-size="18" font-weight="normal" letter-spacing="0.11999999" fill="#575759">
                <tspan x="377" y="165">9</tspan>
            </text>
        </g>
    </g>
</svg>