<svg class="SvgWrap_svg SvgWrap_svg-genplan" xmlns="http://www.w3.org/2000/svg" xmlns:xlink="http://www.w3.org/1999/xlink" width="2664" height="1264" viewBox="0 0 2664 1264">
  <a data-params='{"corpus": 2, "study": 15, "room1": 32, "room2": 3, "room3": 71}' class="Genplan_poligonLink" xlink:href="/house_floor_1.html">
    <g id="_2k" data-name="2k">
      <path class="SvgWrap_genplanPath" d="M1182,405v-2l17-11v-6l31-20h3v5l29-18v-5l24-15h4v4l5-4v-5l2-1,37,11v6l33,10v-6l4-3,47,13v9l47,13v-7l3-1,46,14v9l34,10v-3l4-3,39,12-4,109L1444.475,634.825,1439,633V622l-67-22-2,1v8l-15-5V506l22-16-75-24v12l-56,39v23l-18.728,12.676L1216,549l-3,1v7l-26-8v-9l-52.775-18.169L1131,434l29-19h3v2Z" stroke="#8f3149" fill="#8f3149" opacity="0.7"/>
    </g>
  </a>
  <a data-params='{"corpus": 3, "study": 15, "room1": 32, "room2": 3, "room3": 71}' class="Genplan_poligonLink" xlink:href="/house_floor_1.html">
    <g id="_3k" data-name="3k">
      <path class="SvgWrap_genplanPath" d="M1699,509h3v2l18-15h3l16-15v-3l14-11v-4l26-22h4v3l15-12v-4l12-9v-5l21-17,4,1v2l3-3v-5l3-1,41,11v7l38,10v-6l4-3,52,14v8l55,15v-6l2-1,54,14v10l40,11v-4l3-2,46,13-15,98-5,6-3,18-40,42-63-20,3-24-200-56-65,59-3,36-30,28-88-29,7-110Z" stroke="#8f3149" fill="#8f3149" opacity="0.7"/>
    </g>
  </a>
  <a data-params='{"corpus": 4, "study": 15, "room1": 32, "room2": 3, "room3": 71}' class="Genplan_poligonLink" xlink:href="/house_floor_1.html">
    <g id="_4k" data-name="4k">
      <path class="SvgWrap_genplanPath" d="M1062,873l-4-89,46-34,139,52,25-20,30,11,25-21h3l3-3v-4l11-9L1053,654l-56,40,7,104-47,34L801,768,790,652l36-23h3v3l14-9v-3l34-21,3,1,16-10V580l41-27h4v8l36-23v-3l29-19v-4l17-11h3v5l8-5v-6l3-1,39,13v7l45,15v-7l5-3,61,21v9l26,8v-7l3-1,46,15v9l29,9v-7l2-1,47,16v9l30,10v-8l2-1,67,22v11l51,17v-4l3-2,44,14v3l8,3-3,113-82,71-57-22v74l-82,75Z" stroke="#8f3149" fill="#8f3149" opacity="0.7"/>
    </g>
  </a>
</svg>
