<svg class="hidden-xs" xmlns="http://www.w3.org/2000/svg" xmlns:xlink="http://www.w3.org/1999/xlink" width="126" height="32" viewBox="0 0 126 32">
    <defs>
        <path id="a" d="M0 32h126V0H0z"/>
    </defs>
    <g fill="none" fill-rule="evenodd">
        <path fill="#575759" d="M25 13V8.429C25 8.19 24.75 8 24.444 8h-2.888c-.307 0-.556.19-.556.429V13h4zM8 16v-3.455A.551.551 0 0 0 7.444 12H4.556a.55.55 0 0 0-.556.545V16h4zM20 11V5.157S19.635 5 18.998 5c-.55 0-.998.157-.998.157V11h2z"/>
        <mask id="b" fill="#fff">
            <use xlink:href="#a"/>
        </mask>
        <path fill="#575759" d="M27 14h2v-2h-2zM11 6h2V4h-2zM13 12V8.34S12.27 8 10.996 8C9.896 8 9 8.34 9 8.34V12h4zM26 23v-3.61s-.91-.39-2.504-.39c-1.376 0-2.496.39-2.496.39V23h5zM14 14l1.999-14L18 14zM17 18l-3 2.323V23h6v-2.677zM31 17l-2 1.859V21h4v-2.141z" mask="url(#b)"/>
        <path fill="#575759" d="M18 16A2 2 0 1 1 14 16 2 2 0 0 1 18 16M24 18h5v-3h-5zM9 25h4v-2H9zM14 29h6v-2h-6zM20.574 13h-.15C20.006 14.442 18 14.997 18 16.293 18 17.496 19.108 18 19.108 18h2.784S23 17.496 23 16.293c0-1.296-2.007-1.851-2.426-3.293M13 20v-4.466C13 13.959 10.996 13 10.996 13S9 13.959 9 15.534V20h4zM3 21v-2.413C3 17.71 2.329 17 1.5 17S0 17.71 0 18.587V21h3zM7 21v-2.413C7 17.71 6.328 17 5.5 17S4 17.71 4 18.587V21h3zM23 5V2.198C23 1.535 22.553 1 22 1c-.553 0-1 .535-1 1.198V5h2zM55.538 19.819l-.21-.746c-.352.36-.752.63-1.145.746a3.94 3.94 0 0 1-1.158.177c-.933 0-1.647-.3-2.144-.894-.498-.596-.746-1.497-.746-2.699v-5.03h2.08v4.802c0 .586.102 1.058.302 1.42.199.363.546.543 1.031.543.403 0 .743-.085 1.018-.254.274-.17.497-.33.667-.482v-6.029h2.08v8.446h-1.775zm2.499-8.446h6.211v1.804h-2.065v6.642H60.1v-6.642h-2.065v-1.804zm12.337 8.446l-.21-.746c-.351.36-.751.63-1.144.746-.39.119-.776.177-1.158.177-.933 0-1.647-.3-2.144-.894-.499-.596-.746-1.497-.746-2.699v-5.03h2.08v4.802c0 .586.101 1.058.301 1.42.2.363.546.543 1.032.543.403 0 .743-.085 1.017-.254.275-.17.497-.33.667-.482v-6.029h2.08v8.446h-1.775zm12.814 0l-2.263-4.242-2.264 4.242h-2.455l3.304-5.995-3.095-5.7h2.44l2.05 4.102 2.09-4.103h2.44l-3.096 5.7 3.304 5.996h-2.455zm9.85 0l-2.264-4.242-2.264 4.242h-2.454l3.304-5.995-3.096-5.7h2.44l2.051 4.102 2.09-4.103h2.44l-3.097 5.7 3.304 5.996h-2.454zm3.433 0h2.119V8.123h-2.12V19.82zm19.482-5.076c-.025-1.081-.594-1.769-1.43-1.769-.846 0-1.6.555-1.6 1.769h3.03zm-8.184 2.508c0-.624-.248-.788-.825-.788h-1.85v1.547h1.648c.671 0 1.027.015 1.027-.759zm-.198-3.333c0-.617-.296-.736-.92-.736h-1.557v1.56h1.557c.757 0 .92-.4.92-.824zm2.37 3.674c-.041 1.786-1.795 2.227-2.836 2.227h-4.082v-8.468h3.961c1.285 0 2.815.37 2.815 2.203 0 1.512-1.128 1.82-1.574 1.89.49.094 1.758.378 1.717 2.148zm8.887-6.269l2.053.05v3.695h.077l2.512-3.695h2.362l-3.147 4.195L126 19.874h-2.378l-2.673-3.71h-.068v3.71l-2.053-.05v-8.501zm-5.905 5.15c.076 1.748 2.395 2.216 3.552.857l1.253 1.32c-.148.148-.276.275-.384.38a2.675 2.675 0 0 1-.318.27 3.439 3.439 0 0 1-.642.366c-.492.223-1.072.334-1.74.334-2.52 0-3.867-1.456-3.867-4.368 0-1.815.628-3.355 2.176-4.066a3.512 3.512 0 0 1 1.483-.301c2.24 0 3.557 1.77 3.557 4.05v1.159h-5.07zM45.252 17.66c.848 0 1.636-.076 2.552-1.235l1.608 1.416c-1.023 1.316-2.78 2.158-4.202 2.102-.872 0-1.636-.17-2.295-.519a5.037 5.037 0 0 1-1.615-1.372 5.94 5.94 0 0 1-.978-1.928A7.694 7.694 0 0 1 40 13.936c0-.741.11-1.465.322-2.175.217-.71.54-1.345.978-1.905a4.956 4.956 0 0 1 1.626-1.348C43.578 8.17 44.338 8 45.21 8c.87 0 1.632.17 2.279.508.652.34 1.196.79 1.633 1.348l-1.799 1.391c-.722-.81-1.227-1.126-2.071-1.126-1.988 0-2.998 1.916-2.998 3.814 0 1.964 1.015 3.724 2.998 3.724zM123.136 28.95h1.424l-.727-1.867-.697 1.866zm-1.395 2.026l1.927-4.88h.367l1.965 4.88h-.652l-.593-1.508h-1.814l-.57 1.508h-.63zm-4.304 0v-4.88h3.666v4.88h-.6v-4.354h-2.459v4.354h-.607zm-4.95 0v-4.88h3.667v4.88h-.6v-4.354h-2.459v4.354h-.607zm-4.16.044v-.505h.27c.09 0 .18-.008.273-.022a.702.702 0 0 0 .274-.11 1.1 1.1 0 0 0 .27-.27c.09-.123.18-.291.27-.506l-1.898-3.512h.698l1.53 2.92c.095-.186.197-.4.307-.64.11-.242.221-.493.334-.754.112-.26.22-.523.322-.787.103-.263.191-.51.266-.739h.615c-.225.659-.484 1.311-.776 1.957a26.757 26.757 0 0 1-.91 1.833c-.08.147-.164.287-.248.421a2.07 2.07 0 0 1-.29.362 1.256 1.256 0 0 1-.37.256c-.14.064-.305.096-.495.096h-.442zm-3.502-2.517h.982c.305 0 .553-.073.742-.22.19-.146.285-.388.285-.724 0-.337-.09-.58-.27-.732-.18-.151-.434-.227-.765-.227h-.974v1.903zm-.6 2.473v-4.88h1.56c.575 0 1 .124 1.278.373.277.248.416.617.416 1.104 0 .474-.146.832-.438 1.076-.293.244-.72.366-1.279.366h-.937v1.96h-.6zm-3.6 0v-4.88h2.918v.533h-2.317v4.347h-.6zm-4.85-2.569V26.6h-1.02c-.32 0-.565.076-.735.227-.17.151-.255.366-.255.644 0 .297.086.528.259.691.172.164.423.245.753.245h.998zm-2.722 2.569v-.505h.195c.05 0 .112-.008.187-.022.075-.015.156-.072.244-.172.088-.1.173-.261.258-.483.086-.222.163-.54.233-.955-.345-.097-.603-.256-.776-.476-.172-.219-.259-.511-.259-.877 0-.195.033-.378.098-.55.065-.17.165-.317.3-.442.134-.124.304-.222.51-.293.204-.07.447-.106.727-.106h1.604v4.88h-.6v-2.063h-1.027c-.085.469-.186.84-.304 1.116-.117.276-.24.483-.367.622a.891.891 0 0 1-.386.267c-.13.04-.25.059-.36.059h-.277zm-3.165-2.027h1.425l-.727-1.866-.698 1.866zm-1.394 2.027l1.927-4.88h.367l1.965 4.88H92.1l-.592-1.508h-1.814l-.57 1.508h-.63zm-3.554 0v-4.88h.6v2.129h.48c.1 0 .183-.015.25-.044a.48.48 0 0 0 .191-.169c.06-.082.123-.2.188-.35.065-.152.143-.35.233-.593.06-.171.121-.318.184-.44.062-.122.133-.223.213-.303.08-.08.174-.14.281-.176a1.21 1.21 0 0 1 .387-.055h.427v.505h-.307a.633.633 0 0 0-.218.033.448.448 0 0 0-.165.11.735.735 0 0 0-.135.205c-.04.085-.083.189-.127.31a7.42 7.42 0 0 1-.184.48 3.9 3.9 0 0 1-.165.344 1.704 1.704 0 0 1-.154.237.992.992 0 0 1-.157.162l1.694 2.495h-.72L86.2 28.73h-.66v2.246h-.6zm-.855-.886a2.496 2.496 0 0 1-.24.352 1.689 1.689 0 0 1-.787.54c-.17.06-.363.089-.577.089-.296 0-.57-.048-.822-.143a1.72 1.72 0 0 1-.66-.446 2.148 2.148 0 0 1-.442-.78c-.107-.316-.161-.7-.161-1.148 0-.454.057-.843.172-1.167.115-.325.267-.59.454-.794.187-.205.4-.355.637-.45.238-.095.479-.143.724-.143.38 0 .717.09 1.012.27.295.181.515.425.66.732l-.488.286a1.588 1.588 0 0 0-.176-.267 1.316 1.316 0 0 0-.254-.241 1.452 1.452 0 0 0-.323-.176 1.016 1.016 0 0 0-.378-.07c-.44 0-.784.176-1.032.527-.247.351-.37.852-.37 1.5 0 .317.037.599.112.845.075.247.177.454.307.622.13.169.284.295.461.38.177.086.369.128.574.128.145 0 .273-.02.386-.058a1.211 1.211 0 0 0 .555-.392 2.72 2.72 0 0 0 .199-.281l.457.285zm-6.928-1.587h.982c.305 0 .552-.073.742-.22.19-.146.285-.388.285-.724 0-.337-.09-.58-.27-.732-.18-.151-.435-.227-.765-.227h-.974v1.903zm-.6 2.473v-4.88h1.56c.574 0 1 .124 1.278.373.277.248.416.617.416 1.104 0 .474-.146.832-.439 1.076-.292.244-.718.366-1.278.366h-.937v1.96h-.6zm-3.855 0v-4.88h2.917v.504h-2.316v1.566h1.657v.505h-1.665v1.8H75.8v.505h-3.098zm-4.91 0v-4.88h3.666v4.88h-.6v-4.354h-2.46v4.354h-.607zm-4.245-1.054c.125.19.28.343.465.458.185.114.405.171.66.171s.475-.057.66-.171c.185-.115.337-.268.457-.458s.21-.406.27-.648a3.171 3.171 0 0 0 .004-1.478 2.126 2.126 0 0 0-.266-.647 1.407 1.407 0 0 0-.461-.457 1.248 1.248 0 0 0-.664-.172 1.25 1.25 0 0 0-.664.172 1.434 1.434 0 0 0-.464.457c-.123.19-.213.406-.27.648a3.171 3.171 0 0 0 .003 1.477c.06.242.15.458.27.648zm.173.93a1.986 1.986 0 0 1-.656-.575 2.448 2.448 0 0 1-.383-.813 3.548 3.548 0 0 1 0-1.861c.083-.303.21-.573.383-.813.172-.239.39-.43.656-.574.265-.144.582-.216.952-.216.365 0 .68.072.945.216.265.144.484.335.656.574.173.24.3.51.382.813a3.548 3.548 0 0 1 0 1.862c-.082.305-.21.575-.382.812a1.98 1.98 0 0 1-.656.574c-.265.147-.58.22-.945.22-.37 0-.687-.073-.952-.22zm-6.239.124v-.505h.15c.07 0 .142-.005.214-.015a.858.858 0 0 0 .214-.058.674.674 0 0 0 .198-.132.82.82 0 0 0 .17-.241c.154-.308.246-.702.276-1.182.03-.48.045-1.052.045-1.716v-1.032h2.797v4.88h-.6V26.6h-1.612v.571c0 .81-.031 1.47-.094 1.979-.062.51-.176.904-.34 1.182-.14.234-.31.4-.51.497-.2.098-.428.147-.683.147h-.225zm-3.374 0v-4.88h2.917v.504h-2.317v1.566h1.657v.505H54.7v1.8h2.505v.505h-3.097zm-3.426-.505h1.109c.255 0 .46-.073.615-.216.155-.144.233-.362.233-.655 0-.62-.388-.929-1.163-.929h-.794v1.8zm0-2.305h.772c.3 0 .53-.078.693-.234a.812.812 0 0 0 .244-.615c0-.478-.287-.717-.862-.717h-.847v1.566zm-.6 2.81v-4.88h1.424c.5 0 .877.112 1.133.336.254.224.382.527.382.907 0 .312-.091.552-.274.721a1.34 1.34 0 0 1-.7.326c.14.014.283.046.43.095.148.048.28.12.398.215.117.096.213.218.288.366.075.149.113.333.113.553 0 .21-.036.398-.109.567a1.23 1.23 0 0 1-.3.428 1.316 1.316 0 0 1-.46.27c-.181.064-.376.096-.586.096h-1.74zm-3.855 0v-4.88h2.917v.504h-2.317v1.566h1.657v.505H46.82v1.8h2.504v.505h-3.097zm-1.874-.505V26.6h-1.387c0 .16-.007.33-.019.508a12.01 12.01 0 0 1-.049.53 8.436 8.436 0 0 1-.172.995 7.656 7.656 0 0 1-.33 1.024 5.91 5.91 0 0 1-.203.45c-.07.14-.137.26-.202.363h2.362zM41 32v-1.53h.315c.195-.292.363-.604.503-.936a6.57 6.57 0 0 0 .45-1.61c.03-.204.053-.412.07-.621a15.653 15.653 0 0 0 .049-1.207h2.565v4.375h.405V32h-.6v-1.024H41.6V32H41z" mask="url(#b)"/>
    </g>
</svg>
