<svg class="Share_ico" width="56" height="56" xmlns="http://www.w3.org/2000/svg">
    <g transform="translate(1 1)" fill="none" fill-rule="evenodd">
        <circle class="Share_icoCircle" cx="27" cy="27" r="27" />
        <path class="Share_icoPath" d="M37 21.011a7.912 7.912 0 0 1-2.356.677 4.282 4.282 0 0 0 1.804-2.374 8.052 8.052 0 0 1-2.607 1.042A4.01 4.01 0 0 0 30.846 19c-2.266 0-4.103 1.922-4.103 4.292 0 .336.036.665.106.978-3.409-.179-6.432-1.888-8.456-4.485a4.413 4.413 0 0 0-.554 2.158c0 1.49.724 2.803 1.824 3.572a3.966 3.966 0 0 1-1.858-.538v.053c0 2.08 1.415 3.815 3.29 4.21-.343.097-.706.15-1.08.15a3.77 3.77 0 0 1-.773-.08c.522 1.707 2.037 2.948 3.832 2.982A8.003 8.003 0 0 1 17 34.068 11.227 11.227 0 0 0 23.289 36c7.547 0 11.673-6.542 11.673-12.215l-.014-.556A8.412 8.412 0 0 0 37 21.011z" fill-rule="nonzero" />
    </g>
</svg>