<?xml version="1.0" encoding="UTF-8"?>
<svg preserveAspectRatio="none" viewBox="0 0 234 158" version="1.1" xmlns="http://www.w3.org/2000/svg" xmlns:xlink="http://www.w3.org/1999/xlink">
    <defs></defs>
    <g id="Page-1" stroke="none" stroke-width="1" fill="none" fill-rule="evenodd" opacity="0.7">
        <path d="M52.5565217,23.1334534 L52.6102493,23.0989209 L52.5565217,23.1146982 L52.5565217,23.1334534 Z M85.2869565,4.04551446 L85.2869565,3.93327262 L84.999334,3.95838722 L84.9983193,3.9600263 L85.2869565,4.04551446 Z M17.8608696,47.3295843 L17.920494,47.2906671 L17.8608696,47.3084038 L17.8608696,47.3295843 Z M27.2782609,40.9631123 L27.2782609,39.9826754 L35.7043478,34.5510178 L35.7043478,31.5874282 L51.7759108,21.2576951 L54.5565217,21.2576951 L54.5565217,22.9325376 L66.9304348,15.2810786 L66.9304348,12.8141734 L79.5402066,4.96272233 L82.8086957,4.96272233 L82.8086957,5.86213447 L83.2869565,5.48096551 L83.2869565,2.87471174 L85.1847759,1.92937276 L104.617391,7.68489718 L104.617391,10.6516946 L118.973913,14.9857851 L118.973913,12.8683972 L121.750175,10.7940363 L146.252174,17.5456829 L146.252174,21.9897664 L167.547826,27.8578882 L167.547826,24.9925869 L170.021023,24.1712901 L193.834783,31.3916834 L193.834783,35.8284867 L208.686957,40.1803355 L208.686957,39.5328981 L211.4775,37.4478662 L232.027603,43.7471812 L229.999884,98.7945978 L158.575998,156.120588 L154.66087,154.820456 L154.66087,149.392203 L122.530998,138.881796 L122.46087,138.916728 L122.46087,143.633725 L113.026087,140.500632 L113.026087,90.8775291 L122.740838,83.8388416 L88.7565217,73.0047824 L88.7565217,78.0851525 L61,97.3428476 L61,108.708444 L50.8721997,115.537625 L45.1338494,113.673289 L44.6434783,113.836131 L44.6434783,117.923484 L29.7565217,113.360119 L29.7565217,108.890847 L3.62445099,99.9281381 L1.97984935,55.3069108 L17.0764388,45.4532608 L19.8608696,45.4532608 L19.8608696,45.6301523 L27.2782609,40.9631123 Z" id="Shape-Copy-3" stroke="#C43F60" stroke-width="2" fill-rule="nonzero"></path>
    </g>
</svg>