<?xml version="1.0" encoding="iso-8859-1"?>
<!-- Generator: Adobe Illustrator 22.0.1, SVG Export Plug-In . SVG Version: 6.00 Build 0)  -->
<svg version="1.1" xmlns="http://www.w3.org/2000/svg" xmlns:xlink="http://www.w3.org/1999/xlink" x="0px" y="0px" width="224px"
	 height="193px" viewBox="0 0 224 193" style="enable-background:new 0 0 224 193;" xml:space="preserve">
<g id="_x32_k_x5F_2fl_x5F_1s_x5F_4_x2C__2k_x5F_1fl_x5F_1s_x5F_1">
	<g id="m_&#x43A;&#x43E;&#x43F;&#x438;&#x44F;_19">
		<g>
			<path style="fill:none;stroke:#BD8494;stroke-miterlimit:10;" d="M170.5,11.5v-4h-12v4c0,1.105,0.895,2,2,2h8
				C169.605,13.5,170.5,12.605,170.5,11.5z"/>
			<path style="fill:none;stroke:#BD8494;stroke-miterlimit:10;" d="M169.5,22.5v-6c0-1.657-1.343-3-3-3h-4c-1.657,0-3,1.343-3,3v6
				c0,2.761,2.239,5,5,5l0,0C167.261,27.5,169.5,25.261,169.5,22.5z"/>
			<circle style="fill:none;stroke:#BD8494;stroke-miterlimit:10;" cx="164.5" cy="10.5" r="1"/>
		</g>
		<g>
			<circle style="fill:none;stroke:#BD8494;stroke-miterlimit:10;" cx="183.5" cy="14.5" r="1"/>
			<path style="fill:none;stroke:#BD8494;stroke-miterlimit:10;" d="M174.5,17.5v-10h18v10c0,2.209-1.791,4-4,4h-10
				C176.291,21.5,174.5,19.709,174.5,17.5z"/>
			<path style="fill:none;stroke:#BD8494;stroke-miterlimit:10;" d="M189.5,14.5v-4h-12v4c0,2.209,1.791,4,4,4h4
				C187.709,18.5,189.5,16.709,189.5,14.5z"/>
		</g>
		<g>
			<rect x="86.5" y="7.5" style="fill:none;stroke:#BD8494;stroke-miterlimit:10;" width="18" height="18"/>
			<circle style="fill:none;stroke:#BD8494;stroke-miterlimit:10;" cx="99" cy="13" r="2.5"/>
			<circle style="fill:none;stroke:#BD8494;stroke-miterlimit:10;" cx="92" cy="13" r="2.5"/>
			<circle style="fill:none;stroke:#BD8494;stroke-miterlimit:10;" cx="99" cy="20" r="2.5"/>
			<circle style="fill:none;stroke:#BD8494;stroke-miterlimit:10;" cx="92" cy="20" r="2.5"/>
		</g>
		<g>
			<rect x="122.5" y="7.5" style="fill:none;stroke:#BD8494;stroke-miterlimit:10;" width="18" height="18"/>
			<path style="fill:none;stroke:#BD8494;stroke-miterlimit:10;" d="M135.5,10.5h-8c-1.105,0-2,0.895-2,2v8c0,1.105,0.895,2,2,2h8
				c1.105,0,2-0.895,2-2v-8C137.5,11.395,136.605,10.5,135.5,10.5z"/>
			<circle style="fill:none;stroke:#BD8494;stroke-miterlimit:10;" cx="133.5" cy="14.5" r="1"/>
		</g>
		
			<rect x="104.5" y="7.5" transform="matrix(-1 -1.224647e-16 1.224647e-16 -1 227 33)" style="fill:none;stroke:#BD8494;stroke-miterlimit:10;" width="18" height="18"/>
		<g>
			
				<rect x="158.5" y="37.5" transform="matrix(-1 -1.224647e-16 1.224647e-16 -1 333 91)" style="fill:none;stroke:#BD8494;stroke-miterlimit:10;" width="16" height="16"/>
			<circle style="fill:none;stroke:#BD8494;stroke-miterlimit:10;" cx="166.5" cy="45.5" r="5"/>
		</g>
		<g>
			
				<rect x="183.5" y="20.5" transform="matrix(-1.836970e-16 1 -1 -1.836970e-16 237 -176)" style="fill:none;stroke:#BD8494;stroke-miterlimit:10;" width="46" height="20"/>
			<path style="fill:none;stroke:#BD8494;stroke-miterlimit:10;" d="M213.5,44.5v-30c0-2.209-1.791-4-4-4h-6c-2.209,0-4,1.791-4,4
				v30c0,3.314,2.686,6,6,6h2C210.814,50.5,213.5,47.814,213.5,44.5z"/>
			<circle style="fill:none;stroke:#BD8494;stroke-miterlimit:10;" cx="206.5" cy="14.5" r="1"/>
		</g>
	</g>
	<g id="d_&#x43A;&#x43E;&#x43F;&#x438;&#x44F;_19">
		<line style="fill:none;stroke:#81818C;stroke-miterlimit:10;" x1="194.5" y1="58.5" x2="176.5" y2="76.5"/>
		<line style="fill:none;stroke:#81818C;stroke-miterlimit:10;" x1="153.5" y1="107.5" x2="135.5" y2="125.5"/>
		<line style="fill:none;stroke:#81818C;stroke-miterlimit:10;" x1="179.5" y1="135.5" x2="161.5" y2="153.5"/>
		<line style="fill:none;stroke:#81818C;stroke-miterlimit:10;" x1="49.5" y1="40.5" x2="67.5" y2="58.5"/>
		<line style="fill:none;stroke:#81818C;stroke-miterlimit:10;" x1="135.5" y1="67.5" x2="153.5" y2="85.5"/>
		<line style="fill:none;stroke:#81818C;stroke-miterlimit:10;" x1="218.5" y1="132.5" x2="200.5" y2="114.5"/>
	</g>
	<g id="s_&#x43A;&#x43E;&#x43F;&#x438;&#x44F;_19">
		<path style="fill:#81818C;" d="M224,105V0H0v193h209v-34h15v-27h-6v21h-38v4h23v30h-46v-30h5v-4h-5v-26h-4v60H12V92h141v16h4V85
			h-4v3H50V60h-6v26H12V6h32v35h6V6h92v45h11v12h4v-4h20v-4h-20V6h61v49h-24v4h24v46H224z M46,62h2v17h-2V62z M2,13h3v67H2V13z
			 M2,103h3v67H2V103z M10,170H7v-67h3V170z M10,80H7V13h3V80z M153,47h-7V24h7V47z M153,20h-7V6h7V20z"/>
	</g>
	<g id="text_&#x43A;&#x43E;&#x43F;&#x438;&#x44F;_19">
		<g>
			<path style="fill:#BD8494;" d="M175.5,33.811l0.854-0.765c0.811,0.99,1.785,1.56,3.075,1.56c1.275,0,2.295-0.81,2.295-2.069
				c0-1.306-1.215-2.024-2.939-2.024h-0.676l-0.239-0.705l3.314-3.735h-5.13v-1.065h6.705v0.871l-3.3,3.659
				c1.83,0.149,3.465,1.035,3.465,2.985c0,1.875-1.561,3.164-3.51,3.164C177.66,35.686,176.354,34.921,175.5,33.811z"/>
			<path style="fill:#BD8494;" d="M184.726,33.932h1.38v1.574h-1.38V33.932z"/>
			<path style="fill:#BD8494;" d="M193.365,26.086h-5.775v-1.08h7.125v0.885l-4.77,9.615h-1.32L193.365,26.086z"/>
		</g>
		<g>
			<path style="fill:#BD8494;" d="M82.399,139.405l-1.979,0.615l-0.285-0.96l2.565-0.885h0.869v10.574h-1.17V139.405z"/>
			<path style="fill:#BD8494;" d="M91.505,139.33h-5.775v-1.08h7.125v0.886l-4.77,9.614h-1.32L91.505,139.33z"/>
			<path style="fill:#BD8494;" d="M92.93,147.175h1.38v1.575h-1.38V147.175z"/>
			<path style="fill:#BD8494;" d="M95.704,143.5c0-2.939,1.755-5.43,4.455-5.43s4.41,2.46,4.41,5.43c0,2.94-1.74,5.43-4.44,5.43
				C97.414,148.93,95.704,146.47,95.704,143.5z M103.339,143.5c0-2.295-1.26-4.35-3.21-4.35c-1.965,0-3.194,2.01-3.194,4.35
				c0,2.295,1.26,4.35,3.225,4.35S103.339,145.825,103.339,143.5z"/>
		</g>
		<g>
			<path style="fill:#BD8494;" d="M20.893,54.012l0.854-0.765c0.811,0.99,1.785,1.56,3.075,1.56c1.275,0,2.295-0.81,2.295-2.069
				c0-1.306-1.215-2.024-2.939-2.024h-0.676l-0.239-0.705l3.314-3.735h-5.13v-1.065h6.705v0.871l-3.3,3.659
				c1.83,0.149,3.465,1.035,3.465,2.985c0,1.875-1.561,3.164-3.51,3.164C23.053,55.887,21.747,55.122,20.893,54.012z"/>
			<path style="fill:#BD8494;" d="M30.118,54.133h1.38v1.574h-1.38V54.133z"/>
			<path style="fill:#BD8494;" d="M38.742,53.217h-5.534l-0.301-0.854l5.94-7.229h1.035v7.094h1.635v0.99h-1.635v2.49h-1.141V53.217
				z M38.742,52.227v-5.414l-4.409,5.414H38.742z"/>
		</g>
		<g>
			<path style="fill:#BD8494;" d="M103.522,47.122l-1.979,0.615l-0.285-0.96l2.565-0.885h0.869v10.574h-1.17V47.122z"/>
			<path style="fill:#BD8494;" d="M106.763,51.217c0-2.939,1.755-5.43,4.455-5.43s4.41,2.46,4.41,5.43c0,2.939-1.74,5.43-4.44,5.43
				C108.473,56.646,106.763,54.188,106.763,51.217z M114.397,51.217c0-2.295-1.26-4.35-3.21-4.35c-1.965,0-3.194,2.01-3.194,4.35
				c0,2.295,1.26,4.35,3.225,4.35S114.397,53.542,114.397,51.217z"/>
			<path style="fill:#BD8494;" d="M117.038,54.893h1.38v1.574h-1.38V54.893z"/>
			<path style="fill:#BD8494;" d="M119.902,55.552l3.811-3.36c1.619-1.424,2.189-2.25,2.189-3.299c0-1.23-0.975-2.01-2.115-2.01
				c-1.199,0-1.979,0.629-2.819,1.799l-0.87-0.629c0.945-1.41,1.935-2.235,3.779-2.235c1.891,0,3.255,1.26,3.255,2.999
				c0,1.531-0.824,2.461-2.654,4.08l-2.805,2.49h5.564v1.08h-7.335V55.552z"/>
		</g>
		<g>
			<path style="fill:#BD8494;" d="M182.633,97.047h-5.775v-1.08h7.125v0.885l-4.77,9.615h-1.32L182.633,97.047z"/>
			<path style="fill:#BD8494;" d="M184.058,104.893h1.38v1.574h-1.38V104.893z"/>
			<path style="fill:#BD8494;" d="M186.952,104.771l0.854-0.765c0.811,0.99,1.785,1.56,3.075,1.56c1.275,0,2.295-0.81,2.295-2.069
				c0-1.306-1.215-2.024-2.939-2.024h-0.675l-0.24-0.705l3.314-3.735h-5.13v-1.065h6.705v0.871l-3.3,3.659
				c1.83,0.149,3.465,1.035,3.465,2.985c0,1.875-1.561,3.164-3.51,3.164C189.112,106.646,187.807,105.882,186.952,104.771z"/>
		</g>
		<g>
			<path style="fill:#BD8494;" d="M175.522,168.122l-1.979,0.615l-0.285-0.96l2.565-0.885h0.869v10.574h-1.17V168.122z"/>
			<path style="fill:#BD8494;" d="M178.988,175.893h1.38v1.574h-1.38V175.893z"/>
			<path style="fill:#BD8494;" d="M182.317,176.357l0.69-0.916c0.854,0.75,1.649,1.125,2.58,1.125c1.859,0,3.119-1.859,3.119-4.469
				v-0.136c-0.569,0.915-1.515,1.681-2.97,1.681c-2.159,0-3.659-1.365-3.659-3.285c0-1.995,1.545-3.57,3.779-3.57
				c2.311,0,4.065,1.395,4.065,5.175c0,3.33-1.771,5.685-4.365,5.685C184.192,177.646,183.203,177.092,182.317,176.357z
				 M188.482,170.223c0-1.336-1.095-2.385-2.67-2.385s-2.52,1.154-2.52,2.489s1.05,2.295,2.58,2.295
				C187.478,172.622,188.482,171.452,188.482,170.223z"/>
		</g>
	</g>
</g>
<g id="&#x421;&#x43B;&#x43E;&#x439;_1">
</g>
</svg>
