<?xml version="1.0" encoding="UTF-8"?>
<svg width="33px" height="24px" viewBox="0 0 33 24" version="1.1" xmlns="http://www.w3.org/2000/svg" xmlns:xlink="http://www.w3.org/1999/xlink">
    <!-- Generator: sketchtool 52.5 (67469) - http://www.bohemiancoding.com/sketch -->
    <title>68836952-8D12-425E-9846-5B607CAC6583</title>
    <desc>Created with sketchtool.</desc>
    <g id="Page-1" stroke="none" stroke-width="1" fill="none" fill-rule="evenodd">
        <g id="Маркеры" transform="translate(-766.000000, -204.000000)" fill="#FFFFFF" fill-rule="nonzero">
            <path d="M798.465443,226.606965 L795.008639,226.606965 L795.008639,221.966391 C796.306188,221.730643 797.289417,220.65441 797.289417,219.365672 C797.289417,218.713673 797.026272,217.089715 796.601121,215.603166 C795.991298,213.470764 795.315475,212.477612 794.474082,212.477612 C793.632689,212.477612 792.956866,213.470764 792.347043,215.603166 C791.921892,217.089715 791.658747,218.713673 791.658747,219.365672 C791.658747,220.654481 792.641976,221.730713 793.939525,221.966391 L793.939525,226.606965 L790.447084,226.606965 L790.447084,213.450135 C791.109222,213.228446 791.587473,212.607319 791.587473,211.877114 L791.587473,209.616418 C791.587473,209.323799 791.348205,209.086567 791.052916,209.086567 L790.447084,209.086567 L790.447084,208.450746 L791.62311,208.450746 C791.9184,208.450746 792.157667,208.213514 792.157667,207.920896 C792.157667,207.628277 791.9184,207.391045 791.62311,207.391045 L788.201944,207.391045 C787.906654,207.391045 787.667387,207.628277 787.667387,207.920896 C787.667387,208.213514 787.906654,208.450746 788.201944,208.450746 L789.37797,208.450746 L789.37797,209.086567 L788.772138,209.086567 C788.476849,209.086567 788.237581,209.323799 788.237581,209.616418 L788.237581,211.877114 C788.237581,212.607319 788.715832,213.228446 789.37797,213.450135 L789.37797,226.606965 L787.509015,226.606965 L787.145801,224.840796 L787.631678,224.840796 C787.926968,224.840796 788.166235,224.603564 788.166235,224.310945 C788.166235,224.018326 787.926968,223.781095 787.631678,223.781095 L786.495922,223.781095 C786.49357,223.781095 786.491218,223.781095 786.488795,223.781095 L786.455724,223.781095 L786.455724,222.5801 L787.061555,222.5801 C787.356844,222.5801 787.596112,222.342868 787.596112,222.050249 C787.596112,221.75763 787.356844,221.520398 787.061555,221.520398 L786.455724,221.520398 L786.455724,220.884577 L787.061555,220.884577 C787.356844,220.884577 787.596112,220.647345 787.596112,220.354726 C787.596112,220.062107 787.356844,219.824876 787.061555,219.824876 L776.798056,219.824876 C776.502767,219.824876 776.263499,220.062107 776.263499,220.354726 C776.263499,220.647345 776.502767,220.884577 776.798056,220.884577 L777.403888,220.884577 L777.403888,221.520398 L776.798056,221.520398 C776.502767,221.520398 776.263499,221.75763 776.263499,222.050249 C776.263499,222.342868 776.502767,222.5801 776.798056,222.5801 L777.403888,222.5801 L777.403888,223.781095 L777.370246,223.781095 C777.368251,223.781095 777.366326,223.781095 777.36433,223.781095 L776.227862,223.781095 C775.932572,223.781095 775.693305,224.018326 775.693305,224.310945 C775.693305,224.603564 775.932572,224.840796 776.227862,224.840796 L776.713739,224.840796 L776.350525,226.606965 L772.200864,226.606965 L772.200864,221.417395 C774.445292,221.154306 776.192225,219.257935 776.192225,216.963682 C776.192225,212.983372 772.316186,204.659205 772.151186,204.306819 C772.06359,204.119676 771.874428,204 771.666307,204 C771.458186,204 771.269024,204.119676 771.181428,204.306819 C771.016428,204.659205 767.140389,212.983372 767.140389,216.963682 C767.140389,219.257935 768.887322,221.154306 771.131749,221.417395 L771.131749,226.606965 L766.534557,226.606965 C766.239268,226.606965 766,226.844197 766,227.136816 C766,227.429435 766.239268,227.666667 766.534557,227.666667 L798.465443,227.666667 C798.760732,227.666667 799,227.429435 799,227.136816 C799,226.844197 798.760732,226.606965 798.465443,226.606965 Z M792.727862,219.365672 C792.727862,218.893186 792.937266,217.479262 793.330272,216.053681 C793.901963,213.979986 794.382495,213.599412 794.474082,213.543884 C794.56567,213.599412 795.04613,213.979986 795.617892,216.053681 C796.01097,217.479332 796.220302,218.893186 796.220302,219.365672 C796.220302,220.072493 795.710762,220.672707 795.008639,220.878713 L795.008639,219.789552 C795.008639,219.496933 794.769371,219.259701 794.474082,219.259701 C794.178793,219.259701 793.939525,219.496933 793.939525,219.789552 L793.939525,220.878713 C793.237402,220.672707 792.727862,220.072493 792.727862,219.365672 Z M789.306695,210.146269 L790.518359,210.146269 L790.518359,211.877114 C790.518359,212.208236 790.24659,212.477612 789.912527,212.477612 C789.578464,212.477612 789.306695,212.208236 789.306695,211.877114 L789.306695,210.146269 Z M768.209503,216.963682 C768.209503,214.022869 770.612801,208.229481 771.666307,205.831235 C772.719812,208.229481 775.12311,214.022869 775.12311,216.963682 C775.12311,218.672839 773.854,220.093475 772.200864,220.348933 L772.200864,218.659557 C772.200864,218.659345 772.200864,218.659063 772.200864,218.658851 L772.200864,217.183181 L773.754929,215.642799 C773.963691,215.435875 773.963691,215.100373 773.754929,214.893519 C773.546095,214.686595 773.207685,214.686595 772.998922,214.893519 L772.200864,215.684481 L772.200864,214.702985 C772.200864,214.410366 771.961596,214.173134 771.666307,214.173134 C771.371017,214.173134 771.131749,214.410366 771.131749,214.702985 L771.131749,216.963328 C771.131749,216.96354 771.131749,216.963823 771.131749,216.964035 L771.131749,217.380003 L770.333762,216.589042 C770.124929,216.382117 769.786518,216.382117 769.577756,216.589042 C769.368994,216.795966 769.368994,217.131468 769.577756,217.338321 L771.131749,218.878703 L771.131749,220.348933 C769.478613,220.093475 768.209503,218.672839 768.209503,216.963682 Z M778.473002,220.884577 L785.386609,220.884577 L785.386609,221.520398 L778.473002,221.520398 L778.473002,220.884577 Z M778.473002,222.5801 L785.386609,222.5801 L785.386609,223.781095 L778.473002,223.781095 L778.473002,222.5801 Z M777.804806,224.840796 L786.054806,224.840796 L786.417948,226.606965 L777.441663,226.606965 L777.804806,224.840796 Z" id="Shape"></path>
        </g>
    </g>
</svg>