<?xml version="1.0" encoding="UTF-8"?>
<svg width="26px" height="26px" viewBox="0 0 26 26" version="1.1" xmlns="http://www.w3.org/2000/svg" xmlns:xlink="http://www.w3.org/1999/xlink">
    <!-- Generator: sketchtool 52.5 (67469) - http://www.bohemiancoding.com/sketch -->
    <title>3A4E504D-0C5F-42DA-AEBB-C202FF10047A</title>
    <desc>Created with sketchtool.</desc>
    <g id="Page-1" stroke="none" stroke-width="1" fill="none" fill-rule="evenodd">
        <g id="Благоустройство" transform="translate(-1112.000000, -543.000000)" fill="#FFFFFF" fill-rule="nonzero" stroke="#FFFFFF" stroke-width="0.2">
            <path d="M1134.16321,555.199971 C1134.12101,554.703522 1134.03831,554.211373 1133.91601,553.728375 L1136.008,553.157576 L1136.8832,552.282778 L1136.3176,551.71718 L1135.592,552.441978 L1133.68241,552.961977 C1133.50846,552.465628 1133.29206,551.985179 1133.03561,551.52598 L1135.1916,550.349983 L1136.0832,549.481586 L1135.5176,548.915987 L1134.75761,549.675985 L1132.61601,550.844782 C1132.36286,550.472383 1132.08296,550.118884 1131.77841,549.787185 L1134.08281,547.482791 L1133.51721,546.917192 L1131.21282,549.221586 C1130.83517,548.876087 1130.42952,548.562488 1130.00002,548.283989 L1130.93282,546.231594 L1131.68161,545.482796 L1131.11722,544.917198 L1130.26602,545.768395 L1129.30882,547.87439 C1128.89967,547.65669 1128.47457,547.470441 1128.03722,547.317191 L1128.55722,545.407596 L1129.28242,544.682798 L1128.71722,544.1172 L1127.84202,544.991997 L1127.27123,547.083992 C1126.78838,546.961692 1126.29633,546.879043 1125.80003,546.836793 L1125.80003,544 L1125.00003,544 L1125.00003,554.234373 L1123.80003,555.43437 L1123.23444,555.999969 L1113.36566,565.868743 C1112.87811,566.356292 1112.87811,567.14679 1113.36566,567.634338 C1113.85321,568.121887 1114.64371,568.121887 1115.13126,567.634338 L1125.00003,557.765564 L1125.56563,557.199966 L1126.76563,555.999969 L1137,555.999969 L1137,555.199971 L1134.16321,555.199971 Z M1131.90721,551.231581 L1130.63282,551.926779 C1130.49642,551.73433 1130.34952,551.54953 1130.19282,551.373181 L1131.20642,550.359983 C1131.45901,550.634733 1131.69316,550.925882 1131.90721,551.231581 Z M1129.66602,549.020387 C1130.00927,549.253836 1130.33482,549.512236 1130.64002,549.793585 L1129.62642,550.807182 C1129.44572,550.646483 1129.25607,550.496133 1129.05842,550.356783 L1129.66602,549.020387 Z M1127.82442,548.099189 C1128.22082,548.238289 1128.60617,548.407039 1128.97722,548.603988 L1128.37162,549.936385 C1128.06977,549.778085 1127.75572,549.644335 1127.43242,549.536386 L1127.82442,548.099189 Z M1125.80003,547.639991 C1126.22468,547.68279 1126.64538,547.75819 1127.05843,547.86559 L1127.05723,547.86559 L1126.65723,549.325986 C1126.37418,549.271536 1126.08783,549.236236 1125.80003,549.220386 L1125.80003,547.639991 Z M1114.56566,567.06874 C1114.39046,567.243939 1114.10646,567.243939 1113.93126,567.06874 C1113.75606,566.89354 1113.75606,566.609541 1113.93126,566.434342 L1123.80003,556.565567 L1124.43443,557.199966 L1114.56566,567.06874 Z M1126.43443,555.199971 L1125.00003,556.634367 L1124.36563,555.999969 L1125.80003,554.565572 L1125.80003,550.013984 C1128.57582,550.216734 1130.78327,552.424178 1130.98602,555.199971 L1126.43443,555.199971 Z M1131.05362,552.607978 L1132.33121,551.911179 C1132.55591,552.316278 1132.74661,552.739327 1132.90121,553.175976 L1131.46401,553.567975 C1131.35376,553.237276 1131.21652,552.916177 1131.05362,552.607978 Z M1131.77961,555.199971 C1131.76386,554.911272 1131.72861,554.623922 1131.67401,554.339973 L1133.13441,553.939974 C1133.24186,554.353573 1133.31731,554.774822 1133.36001,555.199971 L1131.77961,555.199971 Z" id="Shape"></path>
        </g>
    </g>
</svg>