<?xml version="1.0" encoding="UTF-8"?>
<svg width="6px" height="696px" viewBox="0 0 6 696" version="1.1" xmlns="http://www.w3.org/2000/svg" xmlns:xlink="http://www.w3.org/1999/xlink">
    <!-- Generator: Sketch 52.5 (67469) - http://www.bohemiancoding.com/sketch -->
    <title>Path 3</title>
    <desc>Created with Sketch.</desc>
    <g id="Page-1" stroke="none" stroke-width="1" fill="none" fill-rule="evenodd" stroke-dasharray="3,2">
        <g id="Транспортная-доступность-Copy-2" transform="translate(-236.000000, -6994.000000)" stroke="#EFEFEF" stroke-width="6">
            <path d="M239,6994.44629 L239,7689.62451" id="Path-3"></path>
        </g>
    </g>
</svg>