<?xml version="1.0" encoding="UTF-8"?>
<svg width="14px" height="17px" viewBox="0 0 14 17" version="1.1" xmlns="http://www.w3.org/2000/svg" xmlns:xlink="http://www.w3.org/1999/xlink">
    <!-- Generator: sketchtool 52.5 (67469) - http://www.bohemiancoding.com/sketch -->
    <title>6413F4A9-0E6D-4800-BE3A-65109C7ABAF2</title>
    <desc>Created with sketchtool.</desc>
    <g id="Page-1" stroke="none" stroke-width="1" fill="none" fill-rule="evenodd">
        <g id="Район" transform="translate(-1329.000000, -878.000000)" fill="#FFFFFF" fill-rule="nonzero">
            <path d="M1339.10755,886.991751 L1339.10755,883.873604 L1336.51465,881.875202 L1336.51465,880.065222 L1337.47676,880.065222 L1337.47676,879.024406 L1336.51465,879.024406 L1336.51465,878 L1335.48528,878 L1335.48528,879.024406 L1334.52317,879.024406 L1334.52317,880.065222 L1335.48528,880.065222 L1335.48528,881.875167 L1332.89238,883.873569 L1332.89238,886.991716 L1329,888.53771 L1329,895 L1343,895 L1343,888.537745 L1339.10755,886.991751 Z M1336.82301,893.959184 L1335.17688,893.959184 L1335.17688,890.697543 C1335.17692,890.238647 1335.54612,889.865306 1335.99997,889.865306 C1336.45381,889.865306 1336.82301,890.238647 1336.82301,890.697508 L1336.82301,893.959184 Z M1341.9706,893.959184 L1340.42617,893.959184 L1340.42617,890.697543 L1339.39681,890.697543 L1339.39681,893.959184 L1337.85238,893.959184 L1337.85238,890.697543 C1337.85238,889.664741 1337.02141,888.82449 1335.99997,888.82449 C1334.97853,888.82449 1334.14755,889.664741 1334.14755,890.697508 L1334.14755,893.959184 L1332.60313,893.959184 L1332.60313,890.697543 L1331.57376,890.697543 L1331.57376,893.959184 L1330.02933,893.959184 L1330.02933,889.247131 L1333.92171,887.701137 L1333.92171,884.388947 L1335.99997,882.787235 L1338.07819,884.388947 L1338.07819,887.701137 L1341.97057,889.247131 L1341.9706,893.959184 Z" id="Shape"></path>
        </g>
    </g>
</svg>