<?xml version="1.0" encoding="UTF-8"?>
<svg width="381px" height="246px" viewBox="0 0 381 246" version="1.1" xmlns="http://www.w3.org/2000/svg" xmlns:xlink="http://www.w3.org/1999/xlink">
    <!-- Generator: Sketch 51.2 (57519) - http://www.bohemiancoding.com/sketch -->
    <title>Shape Copy 2</title>
    <desc>Created with Sketch.</desc>
    <defs></defs>
    <g id="Page-1" stroke="none" stroke-width="1" fill="none" fill-rule="evenodd" opacity="0.7">
        <path d="M21.3708609,71.2333804 L21.4209292,71.2012461 L21.3708609,71.2159311 L21.3708609,71.2333804 Z M119.218543,7.3668675 L119.273476,7.33116008 L119.218543,7.34744479 L119.218543,7.3668675 Z M292.07947,56.9449968 L292.07947,56.8159509 L291.803478,56.8362527 L291.794404,56.8509647 L292.07947,56.9449968 Z M227.81803,155.543162 L240.231867,145.566669 L255.117599,151.049735 L267.369556,140.711019 L268.809615,140.711019 L269.715232,139.80126 L269.715232,137.745785 L274.180202,134.075919 L133.786394,83.9516467 L106.84952,103.280274 L110.326078,155.168239 L86.0827455,172.786183 L7.52470352,140.409834 L1.94717411,81.3232311 L20.587495,69.3596674 L23.3708609,69.3596674 L23.3708609,70.0203505 L28.3245033,66.8213009 L28.3245033,65.3126408 L46.0839245,54.2934162 L47.5709102,54.7913452 L54.6490066,50.3473013 L54.6490066,45.3731325 L75.712407,31.4386694 L79,31.4386694 L79,34.6002994 L94.8807947,24.40783 L94.8807947,22.9183918 L109.284768,13.4381423 L109.284768,11.4386113 L118.43203,5.49272349 L121.218543,5.49272349 L121.218543,7.17890216 L123.192053,5.93981692 L123.192053,2.77924277 L125.682119,1.94542433 L146.05298,8.76676875 L146.05298,12.2594922 L166.403974,19.0741839 L166.403974,16.4060336 L169.77199,14.3759806 L201.18543,25.2399068 L201.18543,29.7052454 L212.099338,33.0787301 L212.099338,30.2220702 L214.585949,29.3894088 L238.437086,37.2025265 L238.437086,41.682172 L250.84106,45.5492879 L250.84106,42.7990287 L252.760765,41.8347858 L277.178808,50.1853309 L277.178808,54.6711347 L290.07947,58.9910238 L290.07947,55.7720017 L291.993464,54.8106279 L326.350993,66.1438046 L326.350993,71.6357916 L349.682119,79.4484042 L349.682119,78.3081672 L352.016829,76.7445752 L375.02649,84.0993171 L375.02649,85.6345146 L379.018451,87.1383467 L377.497969,144.671773 L335.982501,180.782504 L308.470199,170.115152 L308.470199,206.017168 L266.956724,244.160475 L137.129281,192.797667 L135.089834,147.212426 L158.801782,129.606042 L227.81803,155.543162 Z" id="Shape-Copy-2" stroke="#C14761" stroke-width="2" fill-rule="nonzero"></path>
    </g>
</svg>